<?xml version="1.0" encoding="utf-8"?>
<!-- Generator: Adobe Illustrator 15.1.0, SVG Export Plug-In . SVG Version: 6.00 Build 0)  -->
<!DOCTYPE svg PUBLIC "-//W3C//DTD SVG 1.1//EN" "http://www.w3.org/Graphics/SVG/1.1/DTD/svg11.dtd">
<svg version="1.1" id="Layer_1" xmlns="http://www.w3.org/2000/svg" xmlns:xlink="http://www.w3.org/1999/xlink" x="0px" y="0px"
	 width="324px" height="104.894px" viewBox="0 0 324 104.894" enable-background="new 0 0 324 104.894" xml:space="preserve">
<g>
	<defs>
		<rect id="SVGID_1_" width="324" height="104.894"/>
	</defs>
	<clipPath id="SVGID_2_">
		<use xlink:href="#SVGID_1_"  overflow="visible"/>
	</clipPath>
	<path clip-path="url(#SVGID_2_)" fill-rule="evenodd" clip-rule="evenodd" d="M0,9.375c0,0,2.403-2.815,3.093-3.6
		c0.695-0.785,1.202-1.39,1.664-1.847c0.462-0.462,0.993-0.576,1.43-0.532c0.441,0.045,5.149,0.552,6.416,0.695
		c1.271,0.135,6.837,0.392,9.048,0.392c2.219,0,8.051,0.013,9.281,0.013s10.495-0.523,12.554-0.679
		c2.064-0.155,13.895-0.306,16.756-0.351C63.106,3.42,76.355,3.928,79.633,4.11c3.278,0.184,12.281,0.646,15.281,0.556
		c2.999-0.094,17.172-0.694,19.987-0.694c2.816,0,11.68,0.555,13.662,0.874c1.986,0.327,4.295,1.063,4.295,1.063
		s3.785-1.525,5.726-2.166c1.937-0.65,7.017-2.08,10.895-2.677C153.353,0.461,157.509,0,161.617,0c4.11,0,9.971,0.462,13.988,1.345
		c4.013,0.874,8.631,2.256,10.388,2.95c1.754,0.695,5.493,2.399,5.493,2.399s2.726-0.829,5.03-1.336
		c2.31-0.511,5.86-1.063,7.892-1.197c2.035-0.143,3.649-0.328,6.143-0.278c2.493,0.045,8.451,0.645,10.11,0.829
		s5.587,0.646,9.645,0.601c2.726-0.028,11.5-0.417,14.038-0.556c2.538-0.139,17.769-0.829,20.907-0.874
		c3.143-0.05,16.898,0.784,19.67,0.919c2.771,0.143,8.582,0.417,10.384,0.372c1.802-0.049,7.851-0.327,10.896-0.646
		c3.044-0.322,9.579-0.862,10.687-0.927c1.226-0.066,1.753-0.066,1.962,0.073c0.208,0.139,2.125,1.982,2.909,2.861
		c0.785,0.879,1.569,1.962,1.868,2.309c0.302,0.347,0.437,0.486,0.347,0.666c-0.09,0.188-0.646,1.157-0.854,1.41
		c-0.209,0.257-0.393,0.372-0.646,0.507c-0.253,0.143-2.954,1.499-3.833,1.871c-0.874,0.368-3.184,1.337-3.184,1.337
		s0.67,1.569,0.92,2.264c0.257,0.69,0.625,2.101,0.625,2.542c0,0.437,0.045,1.426-0.069,1.496c-0.114,0.073-1.476,0.857-2.007,1.086
		s-2.538,1.063-3.416,1.296c-0.875,0.225-2.514,0.666-2.514,0.666s0.114,1.243,0.069,2.007c-0.049,0.76-0.049,1.643-0.232,2.427
		c-0.16,0.683-0.691,1.59-1.014,2.007c-0.327,0.417-1.042,0.809-1.549,1.058c-0.425,0.213-2.149,0.74-3,0.903
		c-0.854,0.16-2.031,0.348-2.538,0.393c-0.511,0.045-0.928,0.045-0.928,0.045s-0.045,1.504-0.114,2.17
		c-0.065,0.67-0.298,1.847-0.457,2.354c-0.168,0.51-0.626,1.409-1.112,1.822c-0.482,0.417-0.829,0.67-1.659,0.854
		c-0.829,0.188-1.916,0.438-2.958,0.556c-1.034,0.115-3.021,0.343-3.69,0.393c-0.671,0.045-1.365,0.069-1.365,0.069
		s-0.507,1.868-0.711,2.448c-0.209,0.572-0.834,1.822-1.271,2.444c-0.437,0.625-1.201,1.5-1.594,1.847
		c-0.393,0.347-1.014,0.785-1.312,0.875c-0.303,0.093-1.753,0.163-2.448,0.163c-0.694,0-2.791,0-3.833-0.07
		c-1.038-0.069-2.17-0.183-2.881-0.253c-0.605-0.057-1.087-0.184-1.087-0.184s-0.233,1.431-0.303,1.803
		c-0.07,0.367-0.323,1.266-0.597,1.937c-0.278,0.666-0.625,1.176-0.928,1.475c-0.278,0.277-0.564,0.604-1.427,0.785
		c-0.878,0.187-1.712,0.231-2.239,0.253c-0.531,0.023-3.902,0.113-4.802,0.113c-0.903,0-2.632-0.02-3.257-0.045
		c-0.621-0.02-1.59,0-1.59,0s-0.254,1.063-0.441,1.664c-0.18,0.601-0.576,1.594-0.805,2.031c-0.229,0.441-0.544,1.001-0.924,1.36
		c-0.417,0.393-0.58,0.649-1.341,0.739c-0.764,0.091-1.708,0.16-2.628,0.14c-0.928-0.024-2.958-0.14-3.902-0.277
		c-0.948-0.14-2.886-0.511-3.441-0.671c-0.556-0.159-1.132-0.413-1.132-0.413s-0.343,1.063-0.621,1.545
		c-0.278,0.487-0.874,1.439-1.271,1.753c-0.482,0.394-1.014,1.063-1.917,1.177c-0.899,0.119-1.798-0.045-2.56-0.158
		c-0.763-0.114-2.422-0.482-3.138-0.67c-0.719-0.185-2.521-0.716-2.93-0.83c-0.421-0.114-0.928-0.327-0.928-0.327
		s-0.49,0.977-0.83,1.41c-0.322,0.417-0.898,1.087-1.336,1.431c-0.441,0.347-1.226,0.858-1.594,0.902
		c-0.368,0.046-0.969,0-1.758-0.114c-0.784-0.118-1.729-0.396-2.533-0.65c-0.81-0.253-1.479-0.555-1.479-0.555
		s-0.875,2.542-1.107,3.118c-0.233,0.576-1.361,2.934-1.782,3.719c-0.347,0.666-2.219,3.71-2.791,4.544
		c-0.69,1.019-3.457,4.503-4.127,5.17c-0.671,0.67-1.619,1.688-2.22,2.309c-0.597,0.621-3.139,2.885-4.499,3.973
		c-1.365,1.082-3.834,2.885-5.746,4.062c-1.921,1.176-5.402,3.045-6.927,3.738c-1.521,0.691-3.277,1.406-3.277,1.406
		s-0.695,1.316-1.059,2.15c-0.368,0.828-1.042,2.096-1.206,2.324c-0.159,0.234-0.462,0.304-0.805,0.188
		c-0.348-0.113-2.012-0.738-2.632-0.967c-0.621-0.234-2.007-0.811-2.007-0.811s-0.924,1.361-1.251,1.869
		c-0.322,0.51-1.222,1.871-1.381,2.029c-0.163,0.164-0.511,0.1-0.715,0.025c-0.205-0.07-2.007-1.059-2.379-1.271
		c-0.367-0.203-1.916-1.107-1.916-1.107s-0.875,1.062-1.337,1.688c-0.372,0.504-1.643,1.963-1.757,2.077
		c-0.115,0.114-0.299,0.093-0.572-0.021c-0.278-0.115-0.81-0.561-1.41-0.998s-1.618-1.246-1.941-1.449
		c-0.322-0.209-0.621-0.486-0.621-0.486s-1.152,1.131-1.569,1.523c-0.416,0.393-1.43,1.385-1.569,1.523
		c-0.139,0.135-0.392,0.369-0.392,0.369s-0.209,0.158-0.487,0.023c-0.274-0.139-1.45-1.246-1.961-1.732
		c-0.417-0.396-1.619-1.59-1.619-1.59s-1.451,1.059-1.937,1.406c-0.486,0.344-1.778,1.361-2.006,1.475
		c-0.229,0.115-0.556,0.07-0.74-0.18c-0.184-0.258-1.569-1.852-1.823-2.174c-0.253-0.322-1.132-1.361-1.132-1.361
		s-1.708,0.924-2.399,1.271c-0.694,0.348-1.732,1.033-1.916,1.108c-0.188,0.069-0.601,0.069-0.74-0.165
		c-0.135-0.232-1.034-1.52-1.385-2.029c-0.393-0.578-1.202-1.824-1.202-1.824s-1.569,0.576-2.121,0.811
		c-0.552,0.229-2.215,0.877-2.513,0.943c-0.303,0.07-0.74-0.008-0.858-0.229c-0.16-0.303-1.292-2.473-1.525-3
		c-0.229-0.535-0.596-1.32-0.596-1.32s-1.86-0.736-3.069-1.291c-1.317-0.602-4.132-1.982-5.309-2.633
		c-1.177-0.641-3.139-1.818-4.316-2.631c-1.177-0.809-3.878-2.791-4.941-3.715c-1.062-0.92-4.662-4.499-5.516-5.469
		c-0.855-0.968-2.216-2.61-3.372-4.176c-1.153-1.574-1.986-3.023-2.791-4.549c-0.809-1.524-1.431-2.791-2.17-4.618
		c-0.74-1.822-1.361-3.51-1.545-4.127c-0.188-0.625-0.233-0.883-0.233-0.883s-2.101,0.695-3.576,1.042
		c-1.479,0.343-3.142,0.83-4.642,0.74c-1.496-0.095-1.774-0.327-2.146-0.626c-0.368-0.299-0.83-0.833-1.34-1.549
		c-0.507-0.711-0.99-1.659-0.99-1.659s-2.309,0.576-3.208,0.784c-0.898,0.209-3.023,0.626-4.294,0.785
		C79.98,61.839,78.501,62,77.762,61.91c-0.736-0.098-1.259-0.385-1.917-0.949c-0.691-0.6-0.92-0.968-1.267-1.454
		c-0.27-0.376-0.944-1.688-1.087-2.007c-0.135-0.323-0.229-0.74-0.229-0.74s-2.652,0.045-3.347,0.045s-4.34-0.02-5.08-0.045
		c-0.735-0.02-2.721-0.163-3.531-0.321c-0.804-0.164-1.311-0.304-2.075-1.32c-0.761-1.01-0.969-1.496-1.268-2.301
		c-0.302-0.809-0.535-1.713-0.535-1.713s-2.329-0.024-3.576-0.159c-1.246-0.143-3.833-0.437-5.239-0.67
		c-1.41-0.229-3.551-0.601-4.132-0.809c-0.576-0.205-0.898-0.695-1.405-1.247c-0.511-0.555-1.018-1.291-1.48-1.982
		c-0.462-0.695-1.409-2.105-1.5-2.309c-0.09-0.208-0.228-0.437-0.228-0.437s-2.404-0.233-3.462-0.372
		c-1.067-0.135-2.611-0.392-3.326-0.527c-0.716-0.143-2.583-0.49-3-0.695c-0.413-0.208-0.76-0.372-1.132-1.107
		c-0.368-0.74-0.617-2.207-0.924-3.466c-0.318-1.312-0.531-2.374-0.531-2.374s-1.937-0.507-3.486-0.924
		c-1.545-0.417-1.982-0.556-3.048-0.874c-1.059-0.327-2.077-0.72-2.673-1.112c-0.601-0.392-0.581-1.132-0.646-1.545
		c-0.07-0.416-0.233-2.174-0.278-2.681c-0.049-0.506-0.025-1.614-0.025-1.614s-3.853-1.778-4.846-2.215
		c-0.993-0.441-3.347-1.569-3.834-1.798c-0.482-0.233-0.412-0.74-0.343-1.132c0.065-0.392,0.393-1.962,0.556-2.726
		c0.159-0.76,0.413-2.006,0.462-2.17C9.375,16,9.395,15.839,9.395,15.839s-3.719-1.871-4.638-2.358
		c-0.924-0.486-3.531-1.798-3.879-2.01c-0.347-0.205-0.482-0.621-0.645-1.198C0.069,9.698,0,9.375,0,9.375"/>
	<path clip-path="url(#SVGID_2_)" fill-rule="evenodd" clip-rule="evenodd" fill="#FFFFFF" d="M122.654,32.616
		c0.372-4.262,5.729-9.032,4.953-13.368c-0.613-3.432-4.855-6.342-9.117-7.008c-2.452-0.384-10.511-0.985-12.269-1.042
		c-2.166-0.07-8.005-0.184-9.832-0.209c-1.823-0.02-6.649-0.049-8.075-0.094c-1.435-0.045-3.208-0.069-5.497-0.462
		c-2.313-0.396-3.952-0.878-6.232-1.569c-2.285-0.69-4.103-1.247-5.906-1.639c-1.802-0.392-4.086-0.76-5.655-0.899
		c-1.574-0.139-4.663-0.368-6.993-0.413c-2.334-0.045-8.079,0-9.931,0.021c-1.842,0.024-7.568,0.229-9.068,0.229
		s-3.118-0.021-3.829,0.024c-0.716,0.045-0.556,0.393-0.879,0.438c-0.327,0.049-2.076,0-3.069,0s-1.733-0.045-2.08-0.07
		c-0.348-0.021-0.854-0.021-0.854-0.021s-0.065,0.324,0.282,0.414c0.343,0.093,1.222,0.163,1.52,0.188
		c0.299,0.024,2.653,0.184,3.482,0.229c0.838,0.044,2.264,0.044,3.167,0.118c0.899,0.07,2.513,0.07,3.576,0.09
		c1.062,0.024,5.353,0,6.923,0.044c1.569,0.05,4.528,0.05,5.979,0.095c1.454,0.045,4.896,0.184,7.597,0.51
		c2.701,0.319,4.891,0.642,7.613,1.292c2.6,0.617,5.681,1.59,7.181,2.052c1.5,0.461,3.58,1.017,4.659,1.246
		c1.086,0.233,2.059,0.303,2.333,0.535c0.278,0.225,0.278,0.482,0.119,0.83c-0.164,0.347-0.303,0.461-0.417,0.785
		c-0.119,0.322-0.233,0.576-0.233,0.576h-0.969c0,0,0.184-0.184,0.208-0.393c0.021-0.208-0.551-0.555-1.156-0.67
		c-0.596-0.118-3.343-0.368-4.058-0.462c-0.719-0.094-3.441-0.347-4.92-0.327c-1.476,0.029-7.246-0.045-8.725,0
		c-1.476,0.054-6.874-0.065-8.239-0.02c-1.361,0.049-6.114,0-7.409-0.025c-1.292-0.02-4.296-0.02-5.493-0.02
		c-1.201,0-5.264,0-6.694-0.025c-1.431-0.024-6.326-0.138-7.27-0.114c-0.948,0.025-3.625-0.07-4.961-0.09
		c-1.341-0.025-5.934-0.163-7.181-0.163c-1.242,0-2.811-0.094-3.302-0.229c-0.482-0.143-3.114-1.504-4.173-2.031
		C6.694,10.433,4.688,9.4,4.132,9.121C3.58,8.844,3.049,8.472,2.885,8.403C2.726,8.337,1.986,9.052,1.782,9.326
		c-0.209,0.278-0.581,0-0.581,0S3.739,6.51,4.25,5.913c0.507-0.6,1.132-1.409,1.406-1.499C5.934,4.32,7.041,4.32,7.712,4.389
		c0.67,0.07,4.936,0.437,5.77,0.507c0.83,0.07,4.455,0.184,5.423,0.233c0.973,0.045,5.562,0.07,7.086,0.114
		c1.525,0.045,6.302,0.16,7.732,0.09c1.431-0.069,5.399-0.437,6.625-0.507c1.226-0.069,5.08-0.347,6.878-0.392
		c1.802-0.045,5.492-0.02,6.669-0.09c1.177-0.073,5.841-0.118,7.459-0.118c1.614,0,6.162,0.188,7.707,0.233
		c1.549,0.045,8.174,0.392,9.902,0.482c1.729,0.094,10.319,0.392,12.211,0.437c1.893,0.045,4.708,0.143,6.208,0.045
		c1.504-0.09,8.701-0.412,10.895-0.482c2.19-0.07,7.94-0.159,10.274-0.09c2.33,0.065,7.936,0.625,9.832,0.854
		c1.893,0.229,3.76,0.715,4.292,0.736c0.531,0.024,1.385,0.069,1.684,0.347c0.302,0.278,0.58,0.899,1.156,1.246
		c0.572,0.348,1.381,0.483,1.659,0.854c0.278,0.369,0.303,1.133,0.462,1.456c0.164,0.322,0.833,1.381,0.924,2.1
		c0.094,0.715,0,1.962-0.458,2.746c-0.466,0.785-1.23,1.733-2.08,2.608c-0.854,0.878-2.146,1.826-3.278,2.795
		c-1.132,0.968-3.048,2.468-4.038,3.829c-0.997,1.361-1.614,2.289-1.826,3.646c-0.205,1.364-0.09,2.173-0.16,2.402
		c-0.073,0.233-0.277,0.806-0.6,1.153c-0.323,0.347-1.729,1.986-2.24,2.657c-0.507,0.669-1.361,1.916-1.569,2.239
		c-0.209,0.319-0.392,0.666-0.392,0.666l-0.323-0.552c0,0,0.707-0.85,0.776-1.058C122.638,35.26,122.511,34.275,122.654,32.616"/>
	<path clip-path="url(#SVGID_2_)" fill-rule="evenodd" clip-rule="evenodd" fill="#FFFFFF" d="M10.621,16.621l0.159-0.854
		c0,0,2.354-0.021,3.07,0.024c0.715,0.045,5.01,0.184,6.51,0.184c1.499,0,6.162,0.139,7.29,0.094c1.132-0.049,7.434,0.09,8.799,0.09
		c1.361,0,7.961,0.025,9.322,0.049c1.365,0.02,8.909,0.065,10.086,0.065c1.177,0,7.389,0,8.843,0.025
		c1.451,0.02,7.683-0.045,9.093-0.045c1.406,0,5.011,0.065,5.795,0.045c0.785-0.025,1.406-0.09,1.57-0.139
		c0.159-0.045,0.666-0.253,0.968-0.115c0.303,0.14,0.437,0.487,0.576,0.667c0.139,0.188,0.417,0.396,0.576,0.511
		c0.16,0.114,0.487,0.277,0.695,0.555c0.205,0.278,0.205,0.278,0.531,0.528c0.324,0.257,0.393,0.371,0.278,0.51
		c-0.114,0.139-0.604,0.761-0.809,1.083c-0.208,0.323-0.278,0.671-0.392,0.761c-0.119,0.098-0.809,0.163-0.809,0.163
		s0.416-0.298,0.347-0.576c-0.073-0.274-0.556-0.899-1.545-0.969c-0.997-0.07-3.465,0.159-4.573,0.274
		c-1.107,0.118-8.451,0.76-9.742,0.879c-1.292,0.114-11.468,0.833-13.2,0.968c-1.733,0.139-9.784,0.625-11.333,0.74
		c-1.544,0.114-7.572,0.417-9.44,0.527c-1.872,0.119-6.187,0.302-7.826,0.372c-1.635,0.074-4.892,0.139-5.493,0.094
		c-0.6-0.045-1.409-0.392-1.823-0.576c-0.416-0.184-3.023-1.361-3.759-1.688c-0.74-0.323-2.035-0.85-2.264-1.153
		c-0.233-0.302-0.115-0.784-0.115-1.152c0-0.372-0.028-0.854-0.441-1.201C11.148,17.013,10.621,16.621,10.621,16.621"/>
	<path clip-path="url(#SVGID_2_)" fill-rule="evenodd" clip-rule="evenodd" fill="#FFFFFF" d="M18.721,26.592v-0.646
		c0,0,1.087,0,1.659-0.093c0.58-0.091,2.865-0.091,4.385-0.16c1.524-0.074,7.479-0.327,9.351-0.437
		c1.916-0.119,10.412-0.581,12.002-0.695c1.594-0.115,12.808-0.879,14.377-1.017c1.569-0.136,10.83-0.875,12.285-0.99
		c1.45-0.118,6.301-0.625,8.03-0.764c1.733-0.138,1.986-0.367,2.264-0.392c0.278-0.02,0.482-0.184,0.76,0.139
		c0.274,0.323,0.854,0.972,1.201,1.201c0.348,0.233,1.431,0.924,1.456,1.267c0.02,0.348-0.303,0.785-0.466,1.108
		c-0.16,0.327-0.16,0.972-0.16,0.972l-1.107,0.205c0,0,0.089-0.25,0.118-0.413c0.016-0.16-0.167-0.601-0.625-0.785
		c-0.462-0.184-1.226-0.322-1.986-0.159c-0.76,0.159-4.226,0.76-5.636,0.989c-1.406,0.233-9.575,1.594-11.561,1.917
		c-1.986,0.322-9.832,1.524-11.704,1.777c-1.868,0.254-9.114,1.202-11.651,1.451c-2.542,0.257-5.591,0.556-7.295,0.65
		c-1.708,0.09-3.441,0.253-4.688,0.114c-1.246-0.138-3.992-0.993-5.194-1.291c-1.197-0.302-3-0.83-3.302-1.132
		c-0.298-0.302-0.462-0.621-0.552-0.989c-0.089-0.372-0.67-1.157-0.972-1.296C19.415,26.985,18.721,26.592,18.721,26.592"/>
	<path clip-path="url(#SVGID_2_)" fill-rule="evenodd" clip-rule="evenodd" fill="#FFFFFF" d="M28.946,34.741
		c0,0,0.462,0.07,0.969,0c0.51-0.069,0.948-0.302,1.549-0.323c0.596-0.024,2.399-0.094,3.392-0.138
		c0.992-0.046,3.898-0.324,4.916-0.417c1.013-0.095,5.84-0.577,7.409-0.785c1.569-0.209,10.176-1.43,11.61-1.635
		c1.431-0.212,8.632-1.295,10.593-1.643c1.961-0.343,8.541-1.499,10.225-1.822c1.684-0.323,3.715-0.646,4.479-0.805
		c0.76-0.168,1.271-0.511,1.688-0.393c0.413,0.11,0.85,0.438,1.381,0.687c0.531,0.257,1.34,0.511,1.778,0.67
		c0.437,0.164,0.854,0.393,0.899,0.556c0.045,0.163,0,0.809-0.184,1.128c-0.184,0.327-0.298,0.58-0.368,0.948
		c-0.073,0.372-0.094,0.674-0.094,0.674l-1.038,0.368c0,0,0.16-0.466,0-0.695c-0.163-0.233-0.74-0.646-1.038-0.601
		c-0.302,0.045-0.764,0.07-1.247,0.233c-0.481,0.16-6.718,2.032-7.711,2.309l-7.434,2.052c-0.919,0.257-6.784,1.729-8.443,2.076
		c-1.663,0.348-7.801,1.594-9.326,1.872c-1.524,0.278-7.295,1.017-8.77,1.107c-1.479,0.094-1.733,0.139-2.909,0.07
		c-1.178-0.07-3.392-0.348-4.802-0.552c-1.406-0.209-2.93-0.511-3.462-0.625c-0.531-0.115-1.038-0.209-1.27-0.83
		c-0.229-0.625-0.205-1.087-0.597-1.524c-0.393-0.438-0.879-0.879-1.202-1.018c-0.323-0.139-0.833-0.135-0.903-0.298
		C28.922,35.109,28.946,34.741,28.946,34.741"/>
	<path clip-path="url(#SVGID_2_)" fill-rule="evenodd" clip-rule="evenodd" fill="#FFFFFF" d="M41.365,43.164
		c0,0,4.201-0.437,5.146-0.576c0.947-0.139,7.409-1.063,8.958-1.385c1.544-0.324,8.213-1.774,9.415-2.052
		c1.202-0.278,8.497-2.174,9.947-2.567c1.455-0.392,6.347-1.773,7.663-2.19c1.315-0.413,5.219-1.59,5.656-1.778
		c0.437-0.184,0.874-0.507,1.316-0.462c0.441,0.045,1.708,0.438,2.17,0.576c0.461,0.14,1.659,0.348,1.872,0.557
		c0.204,0.204,0.294,0.392,0.249,0.714c-0.045,0.328-0.025,2.032,0,2.216c0.024,0.188,0.465,0.555,0.465,0.555l-1.107,0.437
		c-0.233,0.095-0.74,0.279-0.74,0.279S92.49,37,92.42,36.861c-0.069-0.135-0.699-0.51-0.878-0.552c-0.209-0.048-0.393,0-0.879,0.16
		c-0.482,0.163-1.729,0.719-2.35,0.997c-0.625,0.274-4.315,1.729-5.423,2.166c-1.111,0.437-5.587,2.146-7.021,2.656
		c-1.43,0.507-7.936,2.747-9.138,3.115c-1.201,0.371-5.472,1.569-6.485,1.822c-1.018,0.253-1.504,0.466-2.334,0.511
		c-0.829,0.045-4.062-0.233-5.402-0.417c-1.337-0.184-5.101-0.739-5.607-0.903c-0.507-0.159-0.83-0.368-1.132-0.711
		c-0.299-0.348-0.552-0.601-1.059-0.879c-0.511-0.273-1.107-0.576-1.524-0.74c-0.413-0.159-0.601-0.228-0.879-0.343
		c-0.274-0.118-0.576-0.143-0.739-0.257C41.41,43.375,41.365,43.164,41.365,43.164"/>
	<path clip-path="url(#SVGID_2_)" fill-rule="evenodd" clip-rule="evenodd" fill="#FFFFFF" d="M58.746,50.434
		c0,0,1.357-0.323,1.753-0.507c0.389-0.183,2.583-0.849,3.278-1.037c0.695-0.185,3.163-0.855,4.197-1.202
		c1.042-0.347,5.885-2.006,6.837-2.33c0.944-0.322,6.714-2.492,7.846-2.93c1.132-0.437,7.548-3.069,8.468-3.441
		c0.928-0.367,1.847-0.76,2.17-0.972c0.327-0.205,1.361-0.711,1.851-0.83c0.482-0.114,1.451-0.273,1.888-0.249
		c0.441,0.02,0.765-0.024,0.948,0.18c0.184,0.212,0.258,0.486,0.229,0.833c-0.024,0.343,0.094,1.222,0.487,1.521
		c0.392,0.302,0.993,0.58,1.663,0.739c0.67,0.16,1.312,0.258,1.545,0.278c0.229,0.025,0.392,0,0.392,0s-1.312,0.781-1.639,0.948
		l-1.708,0.851c0,0-0.115-0.344-0.274-0.414c-0.163-0.069-0.785-0.069-1.295-0.024c-0.507,0.045-1.014,0.233-1.476,0.507
		c-0.466,0.278-4.895,2.632-5.77,3.094c-0.879,0.461-7.667,3.996-8.586,4.413c-0.924,0.413-5.284,2.558-6.004,2.881
		c-0.715,0.327-1.132,0.604-1.802,0.67c-0.67,0.07-2.19,0.094-3.551,0.115c-1.361,0.023-4.038-0.045-4.871-0.09
		c-0.83-0.045-2.032-0.074-2.677-0.323c-0.646-0.257-0.74-0.605-1.132-1.062c-0.392-0.462-1.153-0.9-1.5-1.014
		c-0.348-0.119-0.883-0.155-1.108-0.098C58.811,50.965,58.746,50.434,58.746,50.434"/>
	<path clip-path="url(#SVGID_2_)" fill-rule="evenodd" clip-rule="evenodd" fill="#FFFFFF" d="M74.533,56.021
		c0,0,5.284-2.657,6.089-3c0.813-0.348,8.705-4.385,9.718-4.94c1.018-0.557,6.788-3.715,8.035-4.406
		c1.246-0.695,2.975-1.618,3.253-1.802c0.278-0.184,0.486-0.462,0.833-0.581c0.343-0.114,0.576-0.159,0.576-0.159
		s0.487,0.65,0.761,0.993c0.277,0.343,0.903,0.969,1.593,1.062c0.691,0.095,1.038,0.115,1.476,0.066
		c0.437-0.045,1.201-0.204,1.201-0.204s-1.912,1.847-2.26,2.12c-0.347,0.279-4.548,3.72-5.378,4.459
		c-0.83,0.74-3.878,3.114-4.573,3.67c-0.69,0.552-2.906,2.195-3.387,2.444c-0.491,0.257-1.713,0.715-2.477,0.927
		c-0.76,0.205-4.271,0.945-5.538,1.198c-1.267,0.254-3.992,0.719-4.52,0.74c-0.535,0.023-1.295,0.023-1.757-0.467
		c-0.461-0.481-0.715-1.197-1.316-1.495c-0.6-0.303-1.013-0.495-1.43-0.441C74.598,56.319,74.533,56.021,74.533,56.021"/>
	<path clip-path="url(#SVGID_2_)" fill-rule="evenodd" clip-rule="evenodd" fill="#FFFFFF" d="M89.878,59.114
		c0,0,2.865-2.101,3.49-2.611c0.617-0.507,3.204-2.534,3.899-3.09c0.694-0.555,3.735-3.024,4.663-3.784
		c0.924-0.765,3.69-3.118,4.409-3.764c0.716-0.646,2.142-2.031,2.142-2.031s0.098,0.556,0.347,0.76
		c0.258,0.213,0.605,0.65,1.202,0.899c0.6,0.258,1.43,0.303,2.035,0.278c0.597-0.02,1.173-0.09,1.406-0.09
		c0.233,0,0.6,0.115,0.625,0.507c0.02,0.392,0.045,0.67,0.045,0.854c0,0.188,0.09,0.347,0.09,0.347l-4.246,4.708
		c-0.83,0.924-3.233,3.507-3.993,4.292c-0.764,0.784-2.701,2.886-2.93,3.073c-0.233,0.184-0.912,0.036-1.32-0.209
		c-0.528-0.322-1.014-0.068-1.659,0.095c-0.65,0.159-1.803,0.507-2.563,0.69c-0.662,0.159-2.517,0.576-2.999,0.576
		s-1.018-0.045-1.316-0.368c-0.299-0.323-0.969-1.042-1.316-1.201c-0.347-0.164-0.764-0.277-0.944-0.164
		C90.757,59,90.018,59.437,89.878,59.114"/>
	<path clip-path="url(#SVGID_2_)" fill-rule="evenodd" clip-rule="evenodd" fill="#FFFFFF" d="M103.847,60.038
		c0,0,2.767-2.93,3.392-3.576c0.621-0.649,3.972-4.271,4.688-5.055c0.711-0.785,1.937-2.244,2.235-2.612
		c0.303-0.367,0.531-0.621,0.67-0.621c0.139,0,0.924-0.045,1.545-0.163c0.625-0.115,1.574-0.319,1.798-0.254
		c0.233,0.07,0.233,0.254,0.258,0.442c0.024,0.179,0.045,2.19,0.069,2.836c0.021,0.65,0.021,2.056-0.114,2.566
		c-0.139,0.507-1.664,3.481-2.011,4.291c-0.343,0.81-1.341,2.607-1.475,2.954c-0.139,0.344-0.229,0.438-0.347,0.553
		c-0.115,0.118-0.376-0.295-0.74-0.736c-0.507-0.625-1.034-0.535-1.57-0.392c-0.527,0.135-3.506,0.919-4.037,1.033
		c-0.531,0.118-1.455,0.372-1.942,0.277c-0.482-0.089-0.714-0.412-0.943-0.804c-0.233-0.394-0.523-0.65-0.854-0.65
		C104.1,60.127,103.847,60.038,103.847,60.038"/>
	<path clip-path="url(#SVGID_2_)" fill-rule="evenodd" clip-rule="evenodd" fill="#FFFFFF" d="M117.35,57.961
		c0,0,0.69-1.639,0.85-1.941c0.168-0.303,0.392-0.784,0.392-0.784s0.188,0.854,0.347,1.247c0.164,0.392,0.564,0.816,0.695,1.267
		c0.098,0.338,0.785,2.104,0.899,2.378c0.115,0.278,0.323,0.715,0.254,0.973c-0.066,0.253-0.045,0.462,0.049,0.69
		c0.09,0.229,0.176,0.446,0.02,0.507c-0.233,0.094-0.715,0.441-0.874,0.507c-0.164,0.069-0.556,0.049-0.785-0.295
		c-0.143-0.212-0.719-0.257-1.177-0.625c-0.462-0.372-0.417-0.6-0.392-0.972c0.02-0.364,0.228-1.754,0.114-2.052
		C117.627,58.562,117.35,57.961,117.35,57.961"/>
	<path clip-path="url(#SVGID_2_)" fill-rule="evenodd" clip-rule="evenodd" fill="#FFFFFF" d="M103.315,63.592
		c0,0,0.854,1.083,1.41,1.062c0.552-0.024,0.736-0.163,0.965-0.232c0.232-0.069,0.739-0.09,0.948,0.021
		c0.208,0.115,0.51,0.486,0.486,0.834c-0.024,0.347,0.188,1.079,0.437,1.639c0.303,0.67,1.48,3.069,2.171,4.201
		c0.69,1.132,2.697,3.993,3.551,5.031c0.858,1.042,3.698,4.135,4.434,4.776c0.735,0.649,4.479,3.765,5.819,4.663
		c1.337,0.898,4.52,2.959,6.461,3.924c1.937,0.973,4.34,2.1,4.962,2.334c0.621,0.232,1.038,0.297,1.152,0.48
		c0.119,0.189,0.323,0.373,0.323,0.373l-0.711,1.176l-0.626,0.994l-0.527-0.254c0,0,0.389-0.326,0.249-0.6
		c-0.138-0.279-0.302-0.557-0.739-0.789c-0.437-0.229-2.329-1.035-3.163-1.428c-0.83-0.391-4.475-2.377-5.767-3.207
		c-1.295-0.834-4.479-3.023-5.982-4.25c-1.496-1.223-4.753-4.405-5.836-5.606c-1.083-1.202-3.347-4.177-4.042-5.244
		c-0.691-1.058-2.652-4.614-3.069-5.562c-0.417-0.944-0.646-1.569-1.038-1.938c-0.392-0.368-0.507-0.437-0.67-0.462
		c-0.16-0.021-0.573-0.069-0.573-0.069s-0.118-0.277-0.326-0.902C103.45,64.072,103.315,63.592,103.315,63.592"/>
	<path clip-path="url(#SVGID_2_)" fill-rule="evenodd" clip-rule="evenodd" fill="#FFFFFF" d="M107.329,64.284
		c0,0,0.785-0.045,1.41-0.298c0.621-0.254,2.334-0.74,3.024-0.924c0.691-0.188,1.5-0.531,1.847-0.625
		c0.348-0.091,0.601-0.205,0.805-0.16c0.213,0.045,0.328,0.16,0.552,0.482c0.233,0.326,0.515,1.01,0.809,1.246
		c0.348,0.278,0.814,0.695,1.455,0.625c0.65-0.068,1.296-0.139,1.827-0.368c0.527-0.231,1.524-0.878,1.753-0.996
		c0.229-0.114,0.556-0.367,0.67-0.249c0.115,0.114,0.278,0.322,0.438,0.367c0.163,0.045,0.392,0.253,0.482,0.417
		c0.094,0.159,1.524,2.284,2.309,3.229c0.785,0.944,1.916,2.195,2.701,2.955c0.785,0.764,3.069,2.746,3.968,3.392
		c0.904,0.65,3.535,2.403,4.712,3.024c1.177,0.625,2.608,1.385,3.764,1.872c1.153,0.485,2.374,0.968,2.702,1.128
		c0.318,0.163,0.437,0.321,0.666,0.51c0.232,0.185,0.367,0.417,0.277,0.646c-0.093,0.229-1.316,2.146-1.847,3.118
		c-0.531,0.969-1.499,2.514-1.892,3.207c-0.392,0.691-1.43,2.379-1.732,2.932c-0.303,0.555-1.088,1.822-1.133,1.961
		c-0.045,0.135-0.249,0.114-0.322,0c-0.07-0.115,0.277-0.486,0.277-0.943c0-0.463-0.277-1.113-0.531-1.365
		c-0.253-0.254-1.013-0.621-1.43-0.811c-0.417-0.185-2.444-1.152-3.461-1.685c-1.014-0.53-3.07-1.707-4.41-2.585
		c-1.336-0.875-3.139-2.076-4.295-3.02c-1.153-0.949-2.791-2.354-3.805-3.348c-1.018-0.993-2.701-2.86-3.764-4.25
		c-1.062-1.382-2.423-3.253-3.163-4.569c-0.736-1.316-1.5-2.955-1.749-3.232c-0.257-0.273-0.625-0.711-1.157-0.875
		c-0.531-0.158-0.833-0.277-1.062-0.302c-0.233-0.021-0.646-0.021-0.695-0.205C107.284,64.398,107.329,64.284,107.329,64.284"/>
	<path clip-path="url(#SVGID_2_)" fill-rule="evenodd" clip-rule="evenodd" fill="#FFFFFF" d="M83.879,13.596
		c0,0,4.315-0.021,5.586,0c1.268,0.024,4.941,0.024,5.333,0.024c0.393,0,0.9,0.16,1.108,0.184l0.392,0.049
		c0,0,0.185,0.413,0.045,0.552c-0.138,0.135-0.298,0.601-0.412,0.875c-0.119,0.277-0.025,0.58-0.188,0.625
		c-0.16,0.045-0.9,0.139-0.9,0.139s0.115-0.347-0.089-0.487c-0.213-0.134-0.74-0.322-1.177-0.297
		c-0.446,0.02-2.636,0.232-3.327,0.297c-0.695,0.07-2.656,0.328-3.049,0.393c-0.392,0.069-0.829,0-1.128-0.114
		c-0.302-0.119-1.364-0.556-1.663-0.785c-0.298-0.233-0.441-0.323-0.552-0.348l-0.441-0.089l0.209-0.556
		C83.695,13.874,83.879,13.596,83.879,13.596"/>
	<path clip-path="url(#SVGID_2_)" fill-rule="evenodd" clip-rule="evenodd" fill="#FFFFFF" d="M85.15,19.714
		c0,0,0.413-0.649,0.552-0.739c0.138-0.091,1.177-0.417,1.594-0.528c0.417-0.118,2.378-0.58,3.256-0.784
		c0.875-0.213,2.559-0.511,3.344-0.72c0.784-0.208,1.524-0.461,1.757-0.461c0.228,0,0.621,0.114,0.874,0.302
		c0.258,0.184,0.765,0.552,1.018,0.76c0.253,0.209,0.506,0.556,0.437,0.736c-0.065,0.188-0.184,0.327-0.323,0.511
		c-0.134,0.184-0.09,0.274-0.134,0.486c-0.054,0.204-0.054,0.552-0.054,0.552s-0.686,0.208-0.805,0.233
		c-0.114,0.02-0.298,0.069-0.298,0.069s0.184-0.486,0.045-0.576c-0.139-0.094-0.646-0.466-1.153-0.511
		c-0.51-0.045-1.961,0.392-2.452,0.556c-0.482,0.159-2.304,0.645-2.995,0.854c-0.695,0.204-1.316,0.507-1.872,0.462
		c-0.552-0.049-1.038-0.278-1.524-0.507c-0.482-0.233-0.597-0.327-0.76-0.417C85.498,19.898,85.15,19.714,85.15,19.714"/>
	<path clip-path="url(#SVGID_2_)" fill-rule="evenodd" clip-rule="evenodd" fill="#FFFFFF" d="M87.018,24.606
		c0,0,0.045-0.393,0.257-0.552c0.204-0.163,0.761-0.298,1.035-0.441c0.277-0.139,1.131-0.417,2.03-0.736
		c0.904-0.323,2.587-0.834,3.303-1.038c0.719-0.212,2.263-0.694,2.656-0.854c0.392-0.164,0.878-0.462,1.271-0.437
		c0.392,0.02,1.128,0.18,1.545,0.343c0.416,0.164,0.854,0.343,0.923,0.621c0.065,0.278-0.094,0.695-0.253,0.924
		c-0.164,0.233-0.209,0.441-0.254,0.625c-0.049,0.184-0.049,0.527-0.049,0.527s-0.253,0.213-0.555,0.282l-0.483,0.111
		c0,0,0.045-0.323-0.159-0.552c-0.208-0.233-0.785-0.458-1.177-0.347c-0.392,0.114-1.896,0.719-2.472,0.972
		c-0.577,0.254-2.216,1.013-2.771,1.247c-0.552,0.228-0.944,0.437-1.525,0.347c-0.576-0.094-1.058-0.143-1.495-0.347
		c-0.438-0.209-1.018-0.511-1.223-0.581C87.41,24.655,87.018,24.606,87.018,24.606"/>
	<path clip-path="url(#SVGID_2_)" fill-rule="evenodd" clip-rule="evenodd" fill="#FFFFFF" d="M90.618,28.599l1.962-0.944
		c0.67-0.323,3.208-1.475,3.993-1.848c0.784-0.367,2.055-0.992,2.333-1.107c0.278-0.114,0.576-0.323,0.899-0.347
		c0.323-0.025,1.063,0.139,1.475,0.233c0.417,0.09,0.998,0.159,1.132,0.412c0.139,0.254,0.213,0.789,0.139,0.949
		c-0.069,0.163-0.228,0.69-0.204,0.899c0.021,0.208,0.09,0.715,0.09,0.715l-0.597,0.323c-0.302,0.163-0.695,0.347-0.695,0.347
		s-0.089-0.347-0.347-0.576c-0.253-0.233-0.74-0.348-1.107-0.233c-0.25,0.077-1.754,0.948-2.309,1.291
		c-0.552,0.348-1.962,1.226-2.191,1.365c-0.233,0.139-0.437,0.482-1.132,0.393c-0.694-0.09-1.018-0.164-1.365-0.323
		c-0.347-0.159-1.058-0.671-1.246-0.809c-0.18-0.136-0.875-0.323-0.875-0.507S90.618,28.599,90.618,28.599"/>
	<path clip-path="url(#SVGID_2_)" fill-rule="evenodd" clip-rule="evenodd" fill="#FFFFFF" d="M94.243,33.4
		c0,0,1.986-1.312,2.84-1.823c0.85-0.507,2.931-1.708,3.74-2.145s1.593-1.018,2.006-1.087c0.417-0.07,1.451-0.045,1.986-0.045
		c0.528,0,0.899,0,0.945,0.278c0.045,0.274-0.046,0.507-0.07,0.739c-0.021,0.229,0,0.875,0,0.875l-3.993,3.139
		c-0.645,0.506-2.17,1.871-2.26,1.896c-0.094,0.02-0.601-0.392-1.226-0.625c-0.621-0.229-0.964-0.278-1.222-0.323
		c-0.253-0.049-0.645-0.229-1.038-0.417c-0.392-0.184-0.506-0.254-0.784-0.303c-0.274-0.045-0.855,0.164-0.855,0.164L94.243,33.4z"
		/>
	<path clip-path="url(#SVGID_2_)" fill-rule="evenodd" clip-rule="evenodd" fill="#FFFFFF" d="M99.065,36.862
		c0,0,0.993-0.899,1.688-1.5c0.69-0.596,2.812-2.309,3.372-2.771c0.551-0.457,1.961-1.544,2.166-1.704
		c0.208-0.163,0.437-0.188,0.694-0.188c0.253,0,0.874-0.184,1.152-0.184c0.279,0,0.761-0.02,0.81,0.347
		c0.045,0.373,0.233,1.088,0.208,1.362c-0.025,0.278,0,0.6,0.09,0.76c0.094,0.163,0.184,0.257,0.184,0.257s-0.229,0.303-0.621,0.67
		c-0.392,0.364-1.594,1.496-2.125,2.007c-0.532,0.507-1.615,1.549-2.007,1.962c-0.392,0.417-1.013,0.993-1.013,0.993
		s-0.164-0.601-0.511-0.899c-0.343-0.303-1.202-0.462-1.709-0.487c-0.506-0.02-1.152-0.511-1.409-0.576
		c-0.25-0.07-0.552,0.09-0.552,0.09S99.159,37.095,99.065,36.862"/>
	<path clip-path="url(#SVGID_2_)" fill-rule="evenodd" clip-rule="evenodd" fill="#FFFFFF" d="M104.1,39.816l2.722-2.722
		c0.531-0.531,2.309-2.19,2.726-2.611c0.412-0.413,0.76-0.83,1.221-1.034c0.462-0.213,1.018-0.487,1.268-0.392
		c0.257,0.09,0.441,0.437,0.56,0.805c0.114,0.371,0.457,0.878,1.103,1.087c0.646,0.204,1.038,0.274,1.34,0.253
		c0.303-0.024,0.462-0.049,0.462-0.049s-0.65,0.67-0.993,1.018c-0.343,0.347-1.361,1.336-1.966,1.892
		c-0.596,0.556-2.141,2.101-2.583,2.517c-0.437,0.413-1.062,0.944-1.062,0.944s-0.004-0.433-0.323-0.735
		c-0.437-0.421-0.989-0.348-1.496-0.323c-0.51,0.02-0.833-0.119-1.132-0.372c-0.302-0.254-0.535-0.511-0.694-0.531
		c-0.164-0.025-0.528,0.163-0.626,0.208C104.537,39.816,104.1,39.816,104.1,39.816"/>
	<path clip-path="url(#SVGID_2_)" fill-rule="evenodd" clip-rule="evenodd" fill="#FFFFFF" d="M109.548,42.265
		c0,0,1.5-1.41,2.24-2.146c0.739-0.739,2.165-2.125,2.791-2.746c0.621-0.625,1.753-1.688,1.753-1.688s0.233,0.348,0.76,0.393
		c0.536,0.044,1.042,0.143,1.435,0.163c0.392,0.024,1.062,0.024,1.266-0.188c0.209-0.205,0.486-0.274,0.486-0.274
		s-0.326,0.462-0.714,0.969c-0.397,0.506-1.5,2.056-2.125,3.003c-0.621,0.945-2.032,2.996-2.265,3.389
		c-0.229,0.392-0.76,1.226-0.919,1.454c-0.16,0.233-0.372,0.507-0.372,0.507s0.049-0.438-0.323-1.079
		c-0.367-0.65-0.576-0.67-0.899-0.768c-0.323-0.09-0.437,0.049-0.92-0.204c-0.49-0.254-0.739-0.74-1.042-0.81
		c-0.302-0.065-0.286-0.114-0.531,0C109.781,42.424,109.548,42.265,109.548,42.265"/>
	<path clip-path="url(#SVGID_2_)" fill-rule="evenodd" clip-rule="evenodd" fill="#FFFFFF" d="M120.672,36.886
		c0,0,0.184,0.303,0.368,0.531c0.184,0.229,0.441,0.487,0.392,0.671c-0.045,0.183-0.874,1.847-1.062,2.284
		c-0.18,0.437-0.785,2.399-0.92,2.979c-0.139,0.577-0.347,1.431-0.535,1.868c-0.184,0.437-0.364,0.67-0.389,0.854l-0.073,0.556
		c0,0-0.344,0.229-0.507,0.278l-0.506,0.135v-0.438c0-0.188-0.279-0.531-0.458-0.854c-0.188-0.322-0.348-0.691-0.143-1.316
		c0.208-0.621,0.461-1.361,0.694-1.871c0.229-0.507,0.393-1.059,0.761-1.913c0.371-0.854,0.67-1.524,1.107-2.17
		c0.441-0.646,0.646-0.993,0.834-1.246C120.419,36.976,120.672,36.886,120.672,36.886"/>
	<path clip-path="url(#SVGID_2_)" fill-rule="evenodd" clip-rule="evenodd" fill="#FFFFFF" d="M97.292,13.874
		c0,0,1.798-0.09,3.114-0.114c1.316-0.025,2.979,0,3.854,0.138c0.878,0.136,2.333,0.209,2.885,0.184
		c0.552-0.024,1.385-0.093,2.726-0.048c1.336,0.048,3.739,0.118,5.333,0.347c1.589,0.233,3.045,0.555,4.336,0.993
		c1.291,0.437,3.67,1.455,4.434,2.354c0.76,0.899,1.312,1.639,1.222,2.795c-0.09,1.153-0.552,2.374-0.924,3.094
		c-0.368,0.715-1.271,2.26-1.43,2.533c-0.159,0.283-1.549,1.574-2.101,2.195c-0.555,0.621-2.354,2.563-3.069,3.421
		c-0.715,0.85-1.267,1.536-1.504,1.774c-0.322,0.322-0.551,0.669-0.551,0.669h-0.233c0,0,0.282-0.367,0.212-0.76
		c-0.074-0.392-0.392-0.997-0.719-1.177c-0.323-0.188-0.413-0.232-0.646-0.167c-0.229,0.074-0.417,0.167-0.576,0.212
		c-0.163,0.045-0.299,0.07-0.299,0.07s0.806-0.899,1.178-1.291c0.367-0.397,1.385-1.321,1.728-1.664
		c0.348-0.347,0.671-0.556,0.809-0.556c0.139,0,0.736,0.209,1.128,0.045c0.393-0.159,1.112-0.899,1.157-1.405
		c0.045-0.507-0.209-1.018-0.552-1.267c-0.347-0.258-0.854-0.466-1.177-0.442c-0.327,0.025-0.764,0.094-1.087,0.278
		c-0.216,0.123-0.461,0.164-0.461,0.164s0.024-0.258,0.069-0.65s-0.16-0.785-0.372-1.108c-0.204-0.323-0.621-0.576-1.128-0.645
		c-0.506-0.07-0.74,0.069-0.923-0.07c-0.188-0.139-0.045-0.437-0.209-0.809c-0.16-0.368-0.417-0.899-0.899-1.087
		c-0.486-0.18-0.899-0.294-1.132-0.294c-0.229,0-0.229-0.139-0.229-0.438c0-0.392-0.094-1.205-0.323-1.409
		c-0.233-0.213-0.764-0.605-1.087-0.671c-0.323-0.069-0.552-0.114-0.552-0.277c0-0.164,0.205-0.556,0.205-0.924
		c0-0.368-0.07-0.924-0.507-1.222c-0.437-0.302-0.924-0.462-1.107-0.764c-0.188-0.299-0.507-0.621-0.597-0.646
		c-0.098-0.025-0.491-0.025-0.764,0c-0.278,0.025-0.948,0.163-1.431,0.233c-0.486,0.065-0.739,0.184-0.997,0.114
		c-0.249-0.069-0.784-0.277-1.152-0.277c-0.372,0-1.267,0.048-1.868,0.114c-0.6,0.069-1.221,0.139-1.708,0.114
		c-0.486-0.02-0.834-0.18-1.226-0.343c-0.392-0.164-0.507-0.229-0.736-0.368c-0.229-0.138-0.347-0.253-0.347-0.253
		s0.025-0.213,0.069-0.347C97.177,14.082,97.292,13.874,97.292,13.874"/>
	<path clip-path="url(#SVGID_2_)" fill-rule="evenodd" clip-rule="evenodd" fill="#FFFFFF" d="M98.469,18.12
		c0,0,1.3-0.547,2.195-0.83c0.944-0.302,2.627-0.715,3.388-0.874c0.764-0.168,1.319-0.392,1.614-0.302
		c0.302,0.089,0.67,0.089,0.883,0.069l0.412-0.045c0,0,0.184,0.225,0.07,0.298c-0.119,0.07-0.135,0.16-0.393,0.438
		c-0.253,0.278-0.461,0.576-0.76,0.694c-0.302,0.115-0.997,0.274-1.782,0.483c-0.784,0.208-2.031,0.6-2.468,0.719
		c-0.437,0.114-0.552,0.229-1.242,0.114c-0.695-0.114-0.903-0.183-1.202-0.257c-0.302-0.07-0.322,0-0.486,0.074
		c-0.164,0.069-0.253,0-0.253,0v-0.323C98.445,18.259,98.469,18.12,98.469,18.12"/>
	<path clip-path="url(#SVGID_2_)" fill-rule="evenodd" clip-rule="evenodd" fill="#FFFFFF" d="M100.729,21.422
		c0,0,1.247-0.67,2.285-1.107c1.042-0.442,3.142-1.202,3.58-1.316c0.437-0.119,0.919-0.254,1.177-0.119
		c0.249,0.143,0.461,0.302,0.392,0.511c-0.07,0.204-0.417,0.715-0.67,0.854c-0.254,0.135-1.729,0.944-2.289,1.177
		c-0.552,0.233-1.773,0.875-2.141,0.899c-0.372,0.024-0.765-0.069-1.132-0.184c-0.372-0.114-0.507-0.184-0.695-0.208
		c-0.184-0.025-0.576,0-0.576,0s0.049-0.115,0.049-0.229C100.708,21.582,100.729,21.422,100.729,21.422"/>
	<path clip-path="url(#SVGID_2_)" fill-rule="evenodd" clip-rule="evenodd" fill="#FFFFFF" d="M103.062,24.908
		c0,0,1.385-0.809,1.847-1.087c0.458-0.274,1.962-0.989,2.603-1.336c0.65-0.348,1.341-0.65,1.713-0.626
		c0.367,0.025,0.69,0.188,0.739,0.368c0.045,0.188,0,0.58-0.163,0.879c-0.164,0.302-0.266,0.548-0.785,1.038
		c-0.572,0.543-0.993,0.809-1.34,1.112c-0.343,0.298-0.875,0.735-1.153,0.784c-0.277,0.045-0.715-0.213-0.948-0.257
		c-0.229-0.045-0.924-0.323-1.083-0.413c-0.163-0.094-0.441-0.209-0.646-0.184c-0.212,0.02-0.809,0.159-0.809,0.159L103.062,24.908z
		"/>
	<path clip-path="url(#SVGID_2_)" fill-rule="evenodd" clip-rule="evenodd" fill="#FFFFFF" d="M106.732,27.908
		c0,0,0.83-0.76,1.41-1.222c0.572-0.462,1.635-1.177,2.142-1.549c0.506-0.367,0.899-0.646,1.062-0.67
		c0.164-0.02,0.327,0.045,0.442,0.164c0.114,0.114,0.437,0.114,0.527,0.392c0.098,0.274,0,0.507,0.098,0.666
		c0.09,0.168,0.319,0.118,0.363,0.258c0.049,0.134,0,0.417,0,0.417s-1.152,0.898-1.569,1.291c-0.417,0.392-1.083,1.038-1.246,1.128
		c-0.16,0.098-0.76-0.25-1.132-0.413c-0.368-0.159-1.222-0.417-1.545-0.437C106.961,27.908,106.732,27.908,106.732,27.908"/>
	<path clip-path="url(#SVGID_2_)" fill-rule="evenodd" clip-rule="evenodd" fill="#FFFFFF" d="M109.985,30.078
		c0,0,0.989-0.924,1.479-1.361c0.482-0.441,0.989-0.903,1.357-1.25c0.372-0.344,1.157-0.9,1.157-0.9s0.347,0.025,0.302,0.233
		c-0.049,0.209,0.204,0.254,0.368,0.254c0.159,0,0.551-0.094,0.67-0.045c0.114,0.045,0.298,0.114,0.298,0.367
		c0,0.254,0.021,0.483,0.119,0.507c0.09,0.025,0.318-0.024,0.343,0.074c0.025,0.09,0.049,0.249,0.049,0.249
		s-1.295,1.291-1.847,1.802c-0.556,0.507-1.41,1.406-1.524,1.549c-0.115,0.135-0.184,0.229-0.184,0.229s-0.189-0.507-0.65-0.924
		c-0.458-0.416-0.646-0.551-1.083-0.67C110.402,30.078,109.985,30.078,109.985,30.078"/>
	<path clip-path="url(#SVGID_2_)" fill-rule="evenodd" clip-rule="evenodd" fill="#FFFFFF" d="M117.554,33.311
		c0,0,0.764-0.948,1.435-1.663l1.614-1.733c0.278-0.298,0.462-0.576,0.462-0.576s-0.438,1.042-0.532,1.504
		c-0.094,0.457-0.208,1.336-0.208,1.728c0,0.392-0.16,0.83-0.253,1.312c-0.095,0.49-0.095,0.928-0.095,0.928
		s-0.322,0.184-0.551,0.298c-0.233,0.119-0.511,0.299-0.511,0.299s-0.045-0.687-0.319-1.059c-0.278-0.368-0.392-0.466-0.625-0.601
		c-0.233-0.139-0.597-0.184-0.597-0.184L117.554,33.311z"/>
	<path clip-path="url(#SVGID_2_)" fill-rule="evenodd" clip-rule="evenodd" fill="#FFFFFF" d="M134.407,6.326
		c0,0,1.312-0.482,2.142-0.83c0.837-0.347,5.071-1.806,6.375-2.149c1.593-0.413,5.304-1.312,7.548-1.66
		c2.239-0.347,6.739-0.833,11.075-0.833c3.713,0,7.13,0.302,8.933,0.507c1.803,0.212,5.427,0.858,6.905,1.226
		c1.473,0.367,3.941,0.992,5.33,1.454c1.386,0.462,3.552,1.198,4.386,1.57c0.829,0.367,1.36,0.482,1.499,0.625
		c0.135,0.135,0.16,0.347,0.597,0.552c0.441,0.208,1.088,0.437,1.088,0.437s-0.229,0.208-0.577,0.347
		c-0.347,0.139-0.784,0.368-1.132,0.511c-0.343,0.135-0.69,0.344-0.69,0.344s0-0.487-0.184-0.646
		c-0.188-0.164-1.247-0.715-2.354-1.132c-1.025-0.385-2.611-0.948-4.136-1.385c-1.524-0.438-4.246-1.223-6.068-1.545
		c-1.822-0.323-3.784-0.671-5.562-0.854c-1.778-0.185-5.86-0.507-7.985-0.487c-2.125,0.025-6.163,0.254-8.194,0.507
		c-2.011,0.257-5.333,0.764-7.27,1.246c-1.941,0.491-4.528,1.133-5.542,1.48c-1.017,0.347-2.239,0.854-2.632,0.874
		c-0.392,0.025-1.221-0.09-1.499-0.09c-0.274,0-0.552,0-0.716,0.045c-0.159,0.045-0.6,0.278-0.784,0.188
		C134.775,6.53,134.407,6.326,134.407,6.326"/>
	<path clip-path="url(#SVGID_2_)" fill-rule="evenodd" clip-rule="evenodd" fill="#FFFFFF" d="M197.764,32.8
		c0,0-0.482-0.507-0.74-0.785c-0.249-0.277-0.367-1.545-0.67-2.239c-0.299-0.695-1.382-2.146-2.031-2.816
		c-0.642-0.666-1.827-1.876-4.287-3.461c-2.264-1.451-4.618-2.747-7.135-3.691c-2.518-0.952-4.271-1.663-7.295-2.333
		c-3.024-0.671-6.947-1.365-11.218-1.5c-4.271-0.139-7.957,0.204-10.454,0.531c-2.473,0.323-6.003,0.969-9.236,2.056
		c-3.228,1.083-4.038,1.475-5.051,1.962c-1.018,0.482-3.466,1.704-4.365,2.308c-0.899,0.597-2.33,1.59-3.208,2.146
		c-0.874,0.551-1.042,1.005-1.569,0.875c-0.761-0.184-0.973-0.875-0.973-0.875s0.65-0.785,1.275-1.41
		c0.622-0.621,2.097-1.868,3.02-2.632c0.928-0.76,2.726-2.305,3.024-2.583c0.303-0.282,1.108-1.246,1.108-1.246
		s0.253,0.551,0.719,0.413c0.462-0.135,1.197-0.691,1.639-1.382c0.437-0.694,1.197-2.309,1.013-3.649
		c-0.183-1.336-0.367-2.309-0.735-2.563c-0.372-0.253-0.998-0.69-1.455-0.735c-0.462-0.049-0.625,0.021-0.854-0.07
		c-0.233-0.093-0.556-0.371-0.556-0.371s1.108-0.413,1.59-0.621c0.49-0.209,2.656-0.994,4.111-1.386
		c1.455-0.392,3-0.785,4.847-1.152c1.847-0.372,4.569-0.81,6.739-1.018c2.17-0.209,4.986-0.417,6.649-0.392
		c1.659,0.02,5.513,0.233,7.083,0.412c1.573,0.188,4.619,0.581,6.444,0.998c1.818,0.412,5.239,1.242,6.739,1.773
		c1.5,0.536,3.298,1.087,3.485,1.267c0.185,0.188,0.393,0.397,0.667,0.511c0.277,0.115,0.556,0.303,0.556,0.303
		s-0.744,0.817-1.247,1.683c-1.479,2.522,0.286,5.705,2.637,7.45c3.044,2.26,8.603,5.709,9.566,10.863
		C197.82,30.646,197.764,32.8,197.764,32.8"/>
	<path clip-path="url(#SVGID_2_)" fill-rule="evenodd" clip-rule="evenodd" fill="#FFFFFF" d="M199.823,30.033
		c-0.188-1.786-1.263-3.597-2.076-4.782c-0.821-1.185-1.336-2.406-2.26-3.964c-0.924-1.561-3.498-3.093-5.153-4.262
		c-1.267-0.891-2.897-2.853-2.897-4.414c0-0.74-0.372-1.859-1.263-1.357c0.155-0.38,0.511-0.752,0.952-1.119
		c0.854-0.715,2.398-1.688,3.85-2.215c1.455-0.532,4.94-1.48,6.37-1.803c1.431-0.318,5.473-0.989,7.136-1.132
		c1.66-0.135,4.569-0.273,5.955-0.273c1.5,0,4.385,0.147,6.53,0.367c2.26,0.229,5.354,0.695,7.385,0.809
		c2.034,0.115,5.517,0.205,7.041,0.16s4.315-0.16,5.84-0.184c1.524-0.02,7.087-0.208,8.934-0.323
		c1.844-0.114,6.854-0.413,8.726-0.507c1.87-0.094,7.593-0.208,9.231-0.208c1.638,0,8.726,0.323,10.523,0.417
		c1.802,0.09,6.232,0.343,7.871,0.437c1.643,0.094,3.992,0.184,5.357,0.253c1.356,0.07,5.398-0.045,6.277-0.045
		c0.874,0,3.947-0.024,5.632-0.089c1.687-0.074,6.162-0.417,7.801-0.556s5.84-0.576,7.176-0.674c1.341-0.09,2.678-0.295,3.258-0.205
		c0.575,0.094,1.246,0.531,1.431,0.74c0.184,0.204,0.968,1.062,1.545,1.684c0.58,0.625,1.156,1.315,1.246,1.549
		c0.094,0.228,0.466,0.735,0.393,0.919c-0.069,0.188-0.14,0.535-0.348,0.65c-0.204,0.114-1.149,0.527-1.149,0.527
		s-0.048-0.437-0.371-0.576c-0.322-0.139-0.879-0.323-1.296-0.18c-0.412,0.135-1.753,0.711-2.537,1.058
		c-0.785,0.348-2.076,0.948-2.677,1.018c-0.597,0.065-2.952,0.159-4.52,0.18c-1.574,0.024-6.167,0.049-8.149,0.119
		c-1.986,0.069-8.7,0.114-10.11,0.138c-1.41,0.021-7.572,0.09-9.534,0.09s-7.454,0.114-9.232,0.094
		c-1.777-0.025-9.648,0.118-11.381,0.09c-1.729-0.024-6.65,0.028-7.961,0.049c-1.316,0.024-3.094,0.09-4.802,0.205
		c-1.709,0.118-4.111,0.371-4.798,0.416c-0.695,0.045-1.618-0.069-1.941-0.184c-0.323-0.114-0.348-0.163-0.556-0.184
		c-0.204-0.024-0.785-0.114-0.785-0.114l-0.135-0.303c0,0,0.761-0.138,1.382-0.273c0.625-0.143,1.152-0.421,2.264-0.65
		c1.107-0.229,3.898-0.76,5.288-0.993c1.382-0.229,7.639-1.337,9.44-1.569c1.798-0.229,6.481-0.761,8.119-0.875
		c1.644-0.114,6.307-0.486,7.945-0.576c1.635-0.094,5.329-0.257,6.253-0.233s4.083,0.09,5.329,0.159
		c1.246,0.074,1.917,0.074,1.917,0.074l0.232-0.809c0,0-1.315-0.07-2.428-0.139c-1.103-0.07-3.968-0.115-4.937-0.115
		c-0.968,0-4.479,0.021-5.815,0.09c-1.278,0.07-3.164-0.147-4.688-0.204c-1.847-0.07-6.023-0.025-7.731,0.114
		c-1.708,0.135-6.53,0.597-8.055,0.785c-1.524,0.184-6.76,0.944-9.163,1.385c-2.402,0.438-6.138,1.173-7.896,1.5
		c-1.753,0.323-3.992,0.785-5.999,0.993c-2.011,0.205-6.068,0.278-7.549,0.253c-1.479-0.024-5.839-0.118-8.033-0.093
		c-2.191,0.024-5.882,0.024-8.031,0.277c-2.146,0.254-3.972,0.671-5.079,1.042c-1.107,0.369-2.239,0.785-2.996,1.337
		c-0.764,0.552-1.111,1.152-1.087,1.361c0.024,0.208,0.09,0.343,0.09,0.343l0.576,0.188c0,0-0.552,0.437-0.874,0.715
		c-0.323,0.274-0.671,0.924-0.785,1.475c-0.114,0.557-0.302,1.893-0.322,2.449c-0.024,0.555-0.095,0.784,0.094,1.226
		c0.18,0.437,1.059,2.006,1.405,2.676c0.348,0.667,1.268,2.146,1.524,2.583c0.254,0.438,0.736,1.063,1.083,1.594
		c0.348,0.532,0.944,1.802,1.014,2.215c0.074,0.417,0.074,1.013,0.074,1.614v3.004c0,0.482-0.045,0.874-0.144,0.989
		c-0.091,0.114-0.368,0.347-0.393,0.605c-0.021,0.249-0.18,0.829-0.249,1.132c-0.069,0.294-0.303,0.919-0.303,0.919
		s-0.367-0.739-0.392-0.829c-0.021-0.09,0.159-0.695,0.094-1.57C201.458,35.639,200.121,32.852,199.823,30.033"/>
	<path clip-path="url(#SVGID_2_)" fill-rule="evenodd" clip-rule="evenodd" fill="#FFFFFF" d="M198.985,17.683
		c0,0,0.355-0.584,1.315-1.222c0.834-0.556,2.195-1.156,3.024-1.41c0.83-0.253,3.879-0.944,5.265-1.058
		c1.385-0.119,5.104-0.143,6.321-0.164c1.226-0.024,3.56,0.045,4.345,0.021c0.784-0.021,1.888,0,2.722,0
		c0.829,0,2.423-0.021,2.93-0.021s1.479-0.049,1.757,0.021c0.274,0.069,0.785,0.163,0.854,0.372c0.065,0.208,0.135,0.392,0,0.621
		c-0.143,0.229-0.118,0.531-0.118,0.621v0.212c0,0-0.164,0.09-0.327,0.205c-0.159,0.118-0.92,0.555-0.92,0.555s0-0.163-0.139-0.461
		c-0.134-0.299-0.576-0.556-0.899-0.625c-0.322-0.066-1.499-0.135-2.011-0.16c-0.506-0.021-1.729-0.045-2.215-0.094
		c-0.481-0.045-0.715-0.115-0.947-0.115c-0.229,0-0.413,0.025-0.598,0.164c-0.188,0.139-0.253,0.274-0.367,0.298
		c-0.114,0.021-0.347-0.024-0.441-0.024c-0.09,0-0.249,0.135,0.049,0.417c0.438,0.412,1.083,0.486,1.659,0.576
		c0.58,0.094,1.387,0.229,1.986,0.347c0.601,0.115,1.41,0.254,1.938,0.372c0.531,0.115,1.042,0.135,1.222,0.159
		c0.188,0.021,0.511,0.16,0.491,0.348c-0.025,0.18-0.074,0.347-0.144,0.506c-0.07,0.164-0.07,0.462-0.045,0.601
		c0.024,0.139-0.025,0.274-0.16,0.368c-0.143,0.094-0.715,0.299-0.858,0.372c-0.135,0.07-0.388,0.045-0.388,0.045
		s0.069-0.368,0-0.462c-0.072-0.093-0.278-0.298-0.715-0.437c-0.44-0.139-1.594-0.442-2.149-0.556
		c-0.553-0.114-1.499-0.368-2.122-0.482c-0.625-0.115-1.042-0.303-1.222-0.143c-0.188,0.163-0.232,0.302-0.347,0.323
		c-0.115,0.024-0.303-0.066-0.417,0.045c-0.119,0.118-0.278,0.257-0.164,0.392c0.119,0.143,0.536,0.396,0.948,0.535
		c0.417,0.139,1.778,0.532,2.379,0.716c0.597,0.183,1.639,0.6,2.19,0.715c0.556,0.114,1.132,0.298,1.25,0.6
		c0.114,0.303,0.09,0.597-0.118,0.785c-0.209,0.184-0.253,0.437-0.303,0.552c-0.045,0.118-0.114,0.417-0.114,0.417
		s-0.531,0.343-0.642,0.392l-0.511,0.208c0,0,0.184-0.233,0.021-0.625c-0.159-0.392-0.62-0.621-1.222-0.924
		c-0.597-0.298-1.823-0.735-2.285-0.898c-0.462-0.164-1.957-0.761-2.305-0.879c-0.348-0.115-0.739-0.249-1.062-0.184
		c-0.327,0.069-0.49,0.257-0.393,0.417c0.09,0.159,0.344,0.233,0.344,0.417s0,0.343-0.094,0.392
		c-0.09,0.045-0.115,0.066-0.115,0.066s0.785,0.535,1.32,0.784c0.527,0.258,1.843,0.952,2.191,1.132
		c0.347,0.188,1.43,0.695,1.683,0.879c0.254,0.184,0.785,0.486,0.692,0.739c-0.091,0.254-0.182,0.671-0.23,0.805
		c-0.049,0.143,0.049,0.258-0.184,0.348c-0.233,0.09-1.086,0.323-1.086,0.323s-0.021-0.209-0.07-0.323
		c-0.045-0.115-0.205-0.323-0.667-0.597c-0.461-0.277-2.1-1.25-2.517-1.455c-0.417-0.212-1.454-0.764-1.685-0.972
		c-0.232-0.205-0.809-0.691-1.018-0.809c-0.204-0.115-0.625-0.319-0.898-0.045c-0.221,0.224-0.323,0.67-0.188,0.829
		c0.143,0.164,0.445,0.442,0.445,0.442s-0.277,0.208-0.233,0.322c0.045,0.119,0.784,0.646,1.336,1.038
		c0.556,0.393,2.007,1.39,2.379,1.639c0.368,0.254,1.152,0.74,1.41,0.973c0.253,0.229,0.322,0.437,0.135,0.641
		c-0.185,0.213-0.249,0.417-0.249,0.417s0.02,0.278,0.02,0.392c0,0.119-0.045,0.254-0.045,0.254s-0.118,0.114-0.421,0.163
		c-0.294,0.045-0.731,0.07-0.731,0.07s-0.098-0.139-0.069-0.347c0.021-0.209-0.176-0.348-0.49-0.621
		c-0.393-0.348-1.5-1.112-2.052-1.504c-0.552-0.393-1.639-1.108-1.891-1.382c-0.255-0.278-0.721-0.948-0.97-1.156
		c-0.258-0.209-0.601-0.438-0.899-0.323c-0.303,0.114-0.625,0.347-0.67,0.625c-0.044,0.274-0.094,0.482,0.09,0.621
		c0.184,0.139,0.438,0.303,0.438,0.392c0,0.09-0.299,0.164-0.229,0.323c0.069,0.16,1.038,0.879,1.476,1.247
		c0.438,0.367,1.941,1.549,2.309,1.871c0.373,0.324,1.063,0.969,1.157,1.247c0.091,0.278,0.045,0.85-0.069,1.014
		c-0.115,0.163-0.438,0.228-0.74,0.277c-0.303,0.049-0.694,0.094-0.694,0.094s0.143-0.347,0.069-0.486
		c-0.069-0.139-0.711-0.556-1.201-0.948c-0.481-0.392-1.934-1.615-2.489-2.076c-0.556-0.458-1.107-1.018-1.291-1.41
		c-0.188-0.392-0.511-0.92-0.973-0.92s-0.924,0.07-1.202,0.438c-0.276,0.368-0.276,0.764-0.065,0.923
		c0.209,0.164,0.572,0.393,0.458,0.458l-0.413,0.258c0,0,0.438,0.261,0.994,0.739c0.646,0.552,1.753,1.455,2.169,1.847
		c0.414,0.393,1.268,1.202,1.431,1.337c0.159,0.139,0.393,0.551,0.368,0.854c-0.021,0.302-0.065,0.695-0.164,0.854
		c-0.09,0.163,0.03,0.278-0.204,0.392c-0.232,0.119-0.67,0.119-0.829,0.119c-0.164,0-0.303-0.049-0.303-0.049
		s0.393-0.299,0.372-0.442c-0.024-0.134-0.506-0.621-0.834-0.899c-0.323-0.278-1.892-1.614-2.473-2.145
		c-0.572-0.531-1.405-1.361-1.59-1.868c-0.184-0.507-0.184-1.156-0.485-1.569c-0.299-0.417-0.965-0.924-1.268-1.365
		c-0.303-0.437-1.291-1.962-1.753-2.906c-0.466-0.944-0.948-1.663-1.062-2.468c-0.114-0.809-0.024-1.291-0.164-1.549
		c-0.139-0.254-0.461-0.646-0.621-0.646C199.517,17.752,198.985,17.683,198.985,17.683"/>
	<path clip-path="url(#SVGID_2_)" fill-rule="evenodd" clip-rule="evenodd" fill="#FFFFFF" d="M202.704,29.179
		c0,0,1.267,1.455,1.59,1.729c0.327,0.278,0.997,0.69,1.201,0.809c0.209,0.114,0.993,0.899,1.202,1.152
		c0.208,0.254,0.715,0.74,0.69,1.039c-0.021,0.302-0.254,1.111-0.438,1.291c-0.188,0.188-0.462,0.417-0.694,0.445
		c-0.226,0.016-0.642-0.053-0.642-0.053s0.507-0.135,0.507-0.343c0-0.209-0.091-0.392-0.462-0.76
		c-0.368-0.368-0.511-0.511-0.903-1.038c-0.393-0.532-0.711-1.087-0.711-1.087l-0.279,0.089l-0.276,0.025
		c0,0-0.095-0.879-0.209-1.361c-0.118-0.482-0.277-0.907-0.343-1.132C202.839,29.686,202.704,29.179,202.704,29.179"/>
	<path clip-path="url(#SVGID_2_)" fill-rule="evenodd" clip-rule="evenodd" fill="#FFFFFF" d="M202.565,39.657
		c0,0,0.322-0.764,0.367-1.062c0.045-0.299,0.209-0.834,0.233-0.969l0.069-0.368c0,0,0.597,0.785,0.785,1.009
		c0.184,0.233,0.809,0.72,1.037,1.042c0.229,0.324,1.271,1.66,1.709,2.265c0.438,0.596,1.684,2.26,1.912,2.583
		c0.233,0.322,0.928,1.315,0.879,1.593c-0.045,0.274-0.094,0.621-0.229,0.899c-0.14,0.278-0.278,0.576-0.417,0.601
		c-0.14,0.02-0.81,0.045-0.81,0.045s0.184-0.253,0.184-0.417c0-0.159-0.298-0.641-0.711-0.874c-0.416-0.229-1.226-0.671-1.409-0.879
		c-0.185-0.208-0.752-1.708-1.014-2.239c-0.323-0.642-0.879-1.705-1.227-2.191c-0.347-0.486-0.576-0.993-0.715-1.038
		s-0.069,0.069-0.278,0.09C202.725,39.771,202.565,39.657,202.565,39.657"/>
	<path clip-path="url(#SVGID_2_)" fill-rule="evenodd" clip-rule="evenodd" fill="#FFFFFF" d="M203.628,36.196
		c0,0,0.85,0.298,1.336,0.298s0.858,0.025,0.973-0.02c0.114-0.049,0.323-0.417,0.806-0.535c0.486-0.115,0.943-0.045,1.409,0.302
		c0.462,0.347,2.771,2.656,3.114,2.979c0.348,0.323,1.848,1.774,2.31,2.211c0.461,0.441,1.201,1.177,1.34,1.479
		c0.135,0.303,0.204,0.556,0.09,0.716c-0.114,0.159-0.277,0.278-0.347,0.486c-0.065,0.209-0.115,0.67-0.233,0.805
		c-0.114,0.143-0.273,0.302-0.597,0.302s-0.646-0.044-0.646-0.044s0.367-0.209,0.367-0.438c0-0.233-0.114-0.535-0.437-0.719
		c-0.323-0.184-0.666-0.368-1.157-0.625c-0.481-0.25-0.874-0.597-1.222-0.989c-0.347-0.393-1.152-1.48-1.545-1.917
		c-0.392-0.437-1.34-1.659-1.777-2.076c-0.438-0.413-0.879-0.805-1.431-0.923c-0.552-0.115-0.694-0.14-0.809-0.14
		c-0.115,0-0.348,0.372-0.303,0.462c0.049,0.09-0.225-0.139-0.458-0.437C204.18,37.071,203.628,36.196,203.628,36.196"/>
	<path clip-path="url(#SVGID_2_)" fill-rule="evenodd" clip-rule="evenodd" fill="#FFFFFF" d="M208.013,35.133
		c0,0,0.065-0.16,0.09-0.393c0.024-0.232,0.069-0.531,0.188-0.506c0.114,0.02,0.69,0.294,1.083,0.294
		c0.392,0,0.441-0.065,0.441-0.065s0.204-0.348,0.687-0.442c0.489-0.09,0.649-0.11,0.809-0.11c0.164,0,0.393-0.049,0.903,0.16
		c0.507,0.208,1.917,1.36,2.444,1.777c0.531,0.417,2.681,2.1,3.277,2.583c0.601,0.486,1.295,0.948,1.479,1.132
		c0.184,0.188,0.784,0.76,0.646,1.017c-0.139,0.25-0.438,0.552-0.511,0.83c-0.065,0.278-0.09,0.67-0.135,0.829
		c-0.045,0.164-0.372,0.233-0.531,0.209c-0.164-0.021-0.626-0.045-0.626-0.045s0.258-0.184,0.327-0.368
		c0.065-0.188-0.069-0.396-0.327-0.58c-0.253-0.184-0.666-0.462-1.152-0.691s-1.222-0.854-1.822-1.34
		c-0.601-0.482-2.17-1.937-2.518-2.26c-0.348-0.327-1.431-1.246-1.708-1.361c-0.278-0.118-1.083-0.257-1.386-0.323
		c-0.298-0.069-0.739-0.167-0.739-0.167s-0.2,0.302-0.295,0.302c-0.188,0-0.163-0.021-0.163-0.021s0.021,0-0.139-0.138
		C208.172,35.313,208.013,35.133,208.013,35.133"/>
	<path clip-path="url(#SVGID_2_)" fill-rule="evenodd" clip-rule="evenodd" fill="#FFFFFF" d="M211.866,32.8l0.025-0.413
		c0,0,0.298-0.114,0.69-0.114c0.392,0,0.763,0.02,1.201-0.143c0.437-0.16,0.437-0.115,0.739-0.299
		c0.295-0.183,0.438-0.229,0.739-0.417c0.295-0.183,0.229-0.437,0.414-0.461c0.184-0.021,0.739-0.09,0.898,0
		c0.159,0.094,1.337,1.042,2.031,1.454c0.694,0.417,2.791,1.709,3.576,2.195c0.784,0.487,1.961,1.128,2.354,1.475
		c0.393,0.348,0.65,0.536,0.625,0.859c-0.02,0.318-0.277,0.551-0.412,0.804c-0.144,0.254-0.114,0.487-0.213,0.691
		c-0.09,0.209-0.159,0.417-0.159,0.417l-0.969,0.209c0,0,0.254-0.234,0.209-0.483c-0.045-0.257-0.209-0.51-0.626-0.739
		c-0.417-0.233-0.968-0.258-1.43-0.417c-0.458-0.164-1.271-0.715-1.754-1.087c-0.486-0.368-1.708-1.312-2.288-1.704
		c-0.572-0.393-1.406-1.063-1.818-1.251c-0.417-0.184-1.178-0.343-1.619-0.368c-0.44-0.024-0.968,0.025-1.058,0
		c-0.096-0.024-0.233,0.486-0.417,0.323c-0.188-0.159-0.258-0.184-0.486-0.323S211.866,32.8,211.866,32.8"/>
	<path clip-path="url(#SVGID_2_)" fill-rule="evenodd" clip-rule="evenodd" fill="#FFFFFF" d="M217.661,29.616
		c0,0,0.621-0.045,0.761-0.323c0.135-0.278,0.09-0.879,0.135-1.156c0.049-0.278,0.024-0.438,0.143-0.462
		c0.114-0.021,0.417,0.184,0.712,0.212c0.302,0.021,0.674,0,1.156,0.25c0.486,0.257,2.562,1.34,3.649,1.802
		c1.083,0.462,3.253,1.594,3.923,1.847c0.666,0.253,1.773,0.666,1.941,0.969c0.159,0.302,0.249,0.625,0.065,0.923
		s-0.323,0.462-0.254,0.67c0.07,0.209,0.254,0.458,0.091,0.577c-0.16,0.114-0.552,0.138-0.806,0.229
		c-0.253,0.093-0.531,0.093-0.531,0.093s0.233-0.159,0.184-0.417c-0.045-0.249-0.273-0.596-0.76-0.714
		c-0.486-0.115-1.038-0.14-1.479-0.254c-0.438-0.114-0.829-0.298-1.5-0.691c-0.67-0.392-2.031-1.201-2.746-1.569
		c-0.715-0.372-2.031-1.063-2.493-1.361c-0.462-0.302-0.621-0.441-0.854-0.511c-0.229-0.069-0.531-0.09-0.691-0.045
		C218.144,29.73,217.661,29.616,217.661,29.616"/>
	<path clip-path="url(#SVGID_2_)" fill-rule="evenodd" clip-rule="evenodd" fill="#FFFFFF" d="M221.54,25.877
		c0,0,0.114-0.368,0.18-0.785c0.073-0.417-0.021-0.625,0.118-0.67s0.372,0.069,0.666,0.045c0.303-0.025,0.605-0.045,0.809,0.074
		c0.208,0.114,1.227,0.506,1.733,0.686c0.507,0.188,3.139,1.132,4.017,1.459c0.874,0.323,2.47,0.899,3.16,1.152
		c0.694,0.258,1.156,0.323,1.409,0.552c0.254,0.233,0.486,0.556,0.462,1.018c-0.021,0.462,0.069,0.6-0.115,0.829
		c-0.187,0.233-0.231,0.278-0.252,0.417c-0.024,0.135,0.159,0.392,0.044,0.532c-0.113,0.138-0.302,0.163-0.715,0.228
		c-0.416,0.07-0.621,0.115-0.621,0.115s0.344-0.368,0.021-0.667c-0.322-0.298-0.437-0.485-1.177-0.759
		c-0.739-0.278-1.917-0.765-2.448-0.973c-0.531-0.205-2.815-1.247-3.461-1.476c-0.646-0.233-1.962-0.739-2.424-0.992
		c-0.462-0.254-0.646-0.348-0.784-0.532S221.54,25.877,221.54,25.877"/>
	<path clip-path="url(#SVGID_2_)" fill-rule="evenodd" clip-rule="evenodd" fill="#FFFFFF" d="M224.4,22.043
		c0,0-0.045-1.128,0.114-1.177c0.164-0.045,0.626,0.094,0.83,0.07c0.208-0.021,0.784-0.021,1.319,0.118
		c0.527,0.139,3.462,0.879,4.614,1.128c1.152,0.253,2.697,0.625,3.67,0.784c0.969,0.164,1.614,0.164,1.822,0.512
		c0.209,0.347,0.185,1.083,0.164,1.479c-0.024,0.388,0.09,1.222,0.021,1.336c-0.065,0.115-0.552,0.323-0.899,0.462
		c-0.342,0.135-0.486,0.205-0.486,0.205s0.164-0.417-0.069-0.712c-0.229-0.302-1.132-0.67-1.729-0.833
		c-0.6-0.164-2.33-0.736-3.277-1.014s-2.518-0.809-3.045-0.948c-0.535-0.139-1.156-0.298-1.524-0.532
		c-0.372-0.228-0.765-0.645-0.924-0.739C224.838,22.092,224.4,22.043,224.4,22.043"/>
	<path clip-path="url(#SVGID_2_)" fill-rule="evenodd" clip-rule="evenodd" fill="#FFFFFF" d="M226.521,17.867L226.5,17.43
		c0,0,0.528-0.507,0.671-0.507c0.135,0,0.507-0.074,1.083-0.024c0.576,0.049,3.045,0.343,4.018,0.507
		c0.969,0.159,3.556,0.506,4.291,0.6c0.744,0.094,1.876,0.021,2.239,0.119c0.625,0.159,0.532,0.715,0.58,1.103
		c0.045,0.396,0.115,0.993,0.065,1.153c-0.045,0.163-0.392,0.49-0.76,0.764c-0.372,0.278-0.739,0.486-0.944,0.6
		c-0.212,0.115,0.065-0.482-0.163-0.715c-0.143-0.143-0.507-0.323-1.087-0.437c-0.575-0.114-1.5-0.327-2.056-0.441
		c-0.552-0.115-2.677-0.528-3.531-0.691c-0.85-0.159-1.821-0.258-2.398-0.532c-0.576-0.277-0.944-0.739-1.267-0.878
		C226.914,17.912,226.521,17.867,226.521,17.867"/>
	<path clip-path="url(#SVGID_2_)" fill-rule="evenodd" clip-rule="evenodd" fill="#FFFFFF" d="M228.209,14.822
		c0,0-0.159-0.462-0.159-0.58c0-0.09,0.045-0.229,0.045-0.229s0.944,0.045,1.59-0.069c0.646-0.119,2.562-0.414,3.784-0.601
		c1.222-0.184,3.531-0.597,4.295-0.74c0.761-0.135,1.688-0.299,2.008-0.159c0.322,0.139,0.555,0.461,0.6,0.784
		c0.049,0.323,0.303,1.038,0.393,1.337c0.094,0.302,0.327,0.764,0.278,0.903c-0.045,0.139-0.441,0.621-0.716,0.878
		c-0.277,0.254-0.948,0.899-0.948,0.899s0.095-0.531-0.114-0.854c-0.204-0.327-0.625-0.719-1.152-0.879
		c-0.531-0.163-2.701-0.322-3.465-0.297c-0.761,0.02-2.628,0.044-3.507,0.02c-0.879-0.02-1.684-0.18-2.056-0.348
		c-0.368-0.159-0.262-0.11-0.413-0.159C228.394,14.638,228.209,14.822,228.209,14.822"/>
	<path clip-path="url(#SVGID_2_)" fill-rule="evenodd" clip-rule="evenodd" fill="#FFFFFF" d="M240.674,17.315
		c0,0,0.899-0.973,1.132-1.247c0.229-0.277,0.458-0.625,0.617-0.67c0.168-0.045,0.76,0.033,1.132-0.094
		c0.49-0.163,3.604-0.135,4.435-0.163c0.833-0.021,6.575-0.021,7.821-0.021c1.251,0,9.371-0.114,10.716-0.094
		c1.335,0.025,7.221,0,8.721-0.045c1.504-0.045,8.75,0,10.482-0.069c1.729-0.066,10.752-0.115,12.256-0.164
		c1.5-0.045,8.468-0.159,9.739-0.183c1.267-0.021,3.784-0.066,4.568-0.111c0.785-0.053,1.5-0.143,1.803-0.098
		c0.298,0.045,0.347,0.347,0.437,0.535c0.09,0.18,0.531,1.59,0.74,2.211c0.204,0.626,0.367,1.455,0.393,1.847
		c0.02,0.393,0.159,0.879,0.069,0.973c-0.095,0.094-0.924,0.576-1.087,0.621c-0.161,0.045-0.369,0.09-0.369,0.09
		s0.164-0.274,0.046-0.506c-0.114-0.226-0.601-0.573-0.899-0.618c-0.302-0.053-0.739,0.045-1.336,0.274
		c-0.604,0.233-2.358,0.736-3.353,0.948c-0.987,0.205-1.425,0.348-3.112,0.393c-1.685,0.045-5.587,0.02-7.246-0.045
		c-1.663-0.074-6.604-0.213-8.934-0.327c-2.333-0.119-8.1-0.413-10.114-0.511c-2.007-0.09-8.194-0.458-9.665-0.552
		c-1.479-0.09-8.701-0.527-10.205-0.645c-1.5-0.115-9.048-0.577-10.27-0.691c-1.227-0.119-3.854-0.303-4.663-0.348
		c-0.809-0.044-1.937-0.139-2.354-0.253s-0.417-0.278-0.74-0.347C241.11,17.335,240.674,17.315,240.674,17.315"/>
	<path clip-path="url(#SVGID_2_)" fill-rule="evenodd" clip-rule="evenodd" fill="#FFFFFF" d="M237.601,23.061
		c0,0,1.066-0.65,1.524-1.018c0.462-0.367,0.993-0.711,1.111-1.038c0.114-0.322,0.114-0.507,0.114-0.507s3.253,0.095,3.993,0.164
		c0.736,0.066,4.315,0.298,5.264,0.368c0.944,0.07,6.689,0.482,8.492,0.596c1.802,0.119,9.877,0.671,11.491,0.765
		c1.619,0.094,8.06,0.486,9.649,0.58c1.594,0.09,7.756,0.392,9.767,0.482c2.007,0.09,9.023,0.278,10.226,0.303
		c1.197,0.02,5.12,0.065,5.815,0.02c0.69-0.045,1.544-0.114,2.006-0.114s0.989,0.045,1.014,0.531
		c0.028,0.482-0.069,2.514-0.273,3.183c-0.209,0.671-0.671,1.778-1.018,2.077c-0.348,0.302-0.875,0.58-0.875,0.58
		s0.204-0.437,0.069-0.695c-0.139-0.253-0.625-0.625-0.968-0.601c-0.348,0.021-2.403,0.532-3.417,0.646
		c-1.018,0.115-2.701,0.303-3.973,0.278c-1.267-0.02-4.201-0.139-5.68-0.253c-1.472-0.115-5.493-0.417-7.499-0.621
		c-2.007-0.209-7.479-0.814-10.017-1.108c-2.542-0.303-7.667-0.948-9.461-1.177c-1.803-0.233-7.667-1.018-9.236-1.246
		c-1.569-0.234-5.771-0.785-6.923-0.973c-1.156-0.184-4.781-0.715-5.815-0.854c-1.042-0.135-1.688-0.278-2.149-0.278
		c-0.461,0-0.809-0.045-1.406,0c-0.601,0.045-0.506,0.045-0.784,0.045c-0.258,0-0.348-0.021-0.625-0.045
		C237.739,23.13,237.601,23.061,237.601,23.061"/>
	<path clip-path="url(#SVGID_2_)" fill-rule="evenodd" clip-rule="evenodd" fill="#FFFFFF" d="M234.834,28.276
		c0,0,0.874-0.278,1.36-0.507c0.486-0.233,1.271-0.437,1.5-0.829c0.233-0.393,0.278-0.487,0.254-0.74
		c-0.021-0.254-0.09-0.487-0.09-0.487s1.523,0.094,2.12,0.14c0.602,0.048,3.486,0.486,4.386,0.6c0.903,0.118,5.309,0.805,6.51,0.973
		c1.201,0.159,9.351,1.291,10.94,1.499c1.594,0.205,8.565,1.108,9.856,1.247c1.292,0.135,9.139,1.018,10.364,1.128
		c1.222,0.114,5.632,0.531,7.151,0.645c1.524,0.119,4.782,0.303,6.188,0.324c1.41,0.024,2.424-0.021,2.791,0.093
		c0.372,0.119,0.65,0.368,0.581,0.626c-0.07,0.253-0.368,2.468-0.507,2.906c-0.14,0.441-0.368,1.295-0.581,1.593
		c-0.204,0.299-0.367,0.646-0.715,0.834c-0.348,0.18-0.482,0.229-0.482,0.229s0.254-0.486,0.114-0.764
		c-0.139-0.274-0.646-0.76-0.947-0.785c-0.299-0.025-1.455,0.188-2.216,0.302c-0.76,0.115-2.165,0.278-3.118,0.348
		c-0.943,0.065-2.141,0.159-2.746,0.135c-0.597-0.025-1.729-0.135-2.722-0.274c-0.993-0.143-4.639-0.646-5.934-0.859
		c-1.291-0.204-5.537-0.943-7.312-1.266c-1.781-0.323-8.083-1.594-9.305-1.872c-1.223-0.274-5.91-1.291-7.087-1.57
		c-1.177-0.273-6.302-1.475-7.479-1.773c-1.177-0.302-4.45-1.063-5.333-1.271c-0.875-0.208-2.673-0.646-3.159-0.74
		c-0.486-0.09-1.038-0.228-1.455-0.118c-0.417,0.118-1.271,0.372-1.544,0.466c-0.278,0.094-0.323,0.139-0.739,0.069
		C235.066,28.509,234.834,28.276,234.834,28.276"/>
	<path clip-path="url(#SVGID_2_)" fill-rule="evenodd" clip-rule="evenodd" fill="#FFFFFF" d="M230.861,32.73
		c0,0,0.854-0.045,1.247-0.135c0.392-0.094,1.385-0.302,1.826-0.437c0.438-0.143,0.597-0.213,0.646-0.441
		c0.045-0.229-0.049-0.855,0.024-1.108c0.065-0.253,0.181-0.556,0.181-0.556s0.948,0.209,1.34,0.233
		c0.393,0.025,1.733,0.303,2.284,0.438c0.556,0.138,6.879,1.728,7.871,1.986c0.993,0.253,8.219,2.006,9.461,2.264
		c1.251,0.249,7.132,1.545,8.451,1.818c1.315,0.278,10.062,1.893,11.517,2.125c1.455,0.23,6.437,1.014,7.617,1.132
		c1.178,0.115,2.886,0.299,3.233,0.393c0.347,0.094,0.666,0.229,0.597,0.645c-0.091,0.577-0.577,1.733-0.855,2.285
		c-0.272,0.552-0.714,1.549-1.196,2.105c-0.486,0.551-0.81,0.989-1.132,1.197c-0.323,0.208-0.438,0.274-0.438,0.274
		s0.277-0.413,0.208-0.691c-0.073-0.274-0.486-0.646-0.903-0.715c-0.416-0.065-1.315-0.02-2.215-0.02
		c-0.895,0-3.53-0.119-5.84-0.466c-2.305-0.344-5.84-0.92-8.214-1.475c-2.379-0.557-5.774-1.361-8.198-2.056
		c-2.419-0.691-6.412-1.823-8.934-2.673c-2.513-0.858-5.741-1.916-7.151-2.427c-1.41-0.507-5.542-1.962-6.188-2.216
		c-0.646-0.253-1.083-0.347-1.569-0.392c-0.482-0.045-1.083,0.07-1.594,0c-0.507-0.069-1.132-0.233-1.405-0.323
		c-0.278-0.09-0.483-0.159-0.602-0.371C230.816,32.914,230.861,32.73,230.861,32.73"/>
	<path clip-path="url(#SVGID_2_)" fill-rule="evenodd" clip-rule="evenodd" fill="#FFFFFF" d="M226.06,36.792
		c0,0,1.549-0.368,2.334-0.67c0.662-0.249,1.524-0.622,2.264-0.552c0.735,0.069,2.329,0.601,3.229,0.944
		c0.899,0.347,4.107,1.479,4.965,1.802c0.855,0.327,8.19,2.795,9.367,3.163s7.552,2.264,8.889,2.632
		c1.336,0.372,7.479,1.941,8.934,2.236c1.45,0.302,3.85,0.739,4.594,0.883c0.735,0.134,1.43,0.318,1.495,0.666
		c0.069,0.347,0.024,0.902-0.114,1.176c-0.135,0.278-0.368,1.178-0.576,1.733c-0.209,0.552-0.486,1.267-0.78,1.594
		c-0.303,0.323-0.973,0.462-0.973,0.462s0.347-0.233,0.302-0.581c-0.049-0.343-0.163-0.506-0.441-0.69
		c-0.277-0.188-0.437-0.347-0.829-0.368c-0.393-0.024-1.41,0.09-2.194,0.135c-0.785,0.045-3.486,0.045-4.545,0.045
		c-1.062,0-2.125,0.069-2.909-0.021c-0.785-0.093-1.754-0.257-2.976-0.6c-1.226-0.343-4.246-1.455-5.591-1.983
		c-1.336-0.535-5.329-2.308-6.392-2.791c-1.062-0.49-5.029-2.452-6.347-3.118c-1.312-0.67-3.183-1.597-4.201-2.149
		c-1.013-0.552-3.208-1.754-3.784-2.031c-0.576-0.278-1.201-0.483-1.688-0.577c-0.482-0.093-1.177-0.367-1.381-0.462
		c-0.209-0.093-0.716-0.228-0.716-0.228L226.06,36.792z"/>
	<path clip-path="url(#SVGID_2_)" fill-rule="evenodd" clip-rule="evenodd" fill="#FFFFFF" d="M220.96,40.278
		c0,0,1.639-0.368,2.055-0.527c0.413-0.163,1.316-0.372,1.664-0.303c0.344,0.07,1.545,0.646,2.261,1.038
		c0.714,0.397,3.877,2.081,4.895,2.608c1.014,0.535,5.19,2.677,6.139,3.138c0.948,0.462,4.017,1.986,5.12,2.473
		c1.111,0.486,4.941,2.19,6.028,2.628c1.001,0.408,2.607,0.997,3.53,1.32c0.924,0.318,2.101,0.667,2.652,0.829
		c0.557,0.159,1.524,0.417,1.595,0.666c0.069,0.259,0.069,0.626-0.115,1.019c-0.184,0.392-0.621,1.614-0.833,2.007
		c-0.205,0.392-0.552,1.156-0.851,1.434c-0.302,0.274-0.441,0.417-0.625,0.463c-0.184,0.044-0.203,0.02-0.203,0.02
		s0.342-0.413,0.342-0.576c0-0.159-0.208-0.715-0.486-0.898c-0.273-0.185-0.646-0.372-0.944-0.372c-0.302,0-1.246,0-2.145-0.091
		c-0.903-0.09-2.379-0.277-3.462-0.507c-1.087-0.232-1.827-0.347-2.726-0.739c-0.899-0.393-2.886-1.431-3.924-2.03
		c-1.042-0.602-4.34-2.632-5.378-3.327c-0.984-0.654-5.722-4.038-6.44-4.544c-0.715-0.511-2.424-1.754-3.114-2.285
		c-0.694-0.531-1.684-1.32-2.076-1.5c-0.392-0.184-1.549-0.605-1.945-0.764c-0.388-0.159-0.829-0.298-0.943-0.552
		C220.915,40.65,220.96,40.278,220.96,40.278"/>
	<path clip-path="url(#SVGID_2_)" fill-rule="evenodd" clip-rule="evenodd" fill="#FFFFFF" d="M215.929,43.327
		c0,0,0.899,0.045,1.291-0.045c0.393-0.094,1.223-0.327,1.479-0.327c0.254,0,0.736-0.09,1.197,0.114
		c0.462,0.213,1.64,0.883,2.244,1.365c0.597,0.487,3.114,2.424,3.898,3c0.785,0.576,4.569,3.257,5.329,3.784
		c0.765,0.531,4.201,2.815,5.125,3.372c0.928,0.555,2.632,1.593,3.461,2.076c0.834,0.485,1.758,0.947,2.011,1.201
		c0.254,0.258,0.576,0.507,0.323,1.087c-0.258,0.572-0.989,1.754-1.177,2.031c-0.185,0.278-0.695,0.784-0.944,0.964
		c-0.259,0.188-0.372,0.233-0.372,0.233s0.393-0.438,0.319-0.74c-0.065-0.298-0.25-0.734-0.712-0.988
		c-0.461-0.254-1.385-0.348-2.075-0.512c-0.691-0.159-3.258-0.784-4.246-1.058c-0.998-0.278-1.827-0.511-2.448-0.973
		c-0.625-0.462-2.26-1.982-3.045-2.701c-0.784-0.711-2.452-2.284-3.396-3.139c-0.944-0.854-2.886-2.677-3.577-3.343
		c-0.693-0.67-2.586-2.333-2.913-2.701c-0.318-0.372-1.104-1.107-1.337-1.34c-0.232-0.229-0.412-0.209-0.551-0.442
		c-0.139-0.225-0.069-0.572-0.024-0.666C215.839,43.486,215.929,43.327,215.929,43.327"/>
	<path clip-path="url(#SVGID_2_)" fill-rule="evenodd" clip-rule="evenodd" fill="#FFFFFF" d="M210.134,47.181l0.208-0.695
		c0.07-0.228,0.07-0.367,0.07-0.367s0.809,0.044,1.454-0.045c0.646-0.094,0.993-0.254,1.545-0.209
		c0.556,0.049,0.81,0.164,1.087,0.715c0.278,0.556,1.107,1.455,1.685,2.011c0.576,0.552,3.371,3.134,4.226,3.948
		c0.85,0.805,3.551,3.367,4.503,4.221c0.94,0.855,2.231,1.983,2.579,2.33c0.347,0.348,1.156,1.132,1.345,1.364
		c0.18,0.229,0.135,0.691-0.074,1.035c-0.204,0.347-0.646,1.062-0.969,1.365c-0.322,0.302-1.018,0.783-1.018,0.783
		s0.258-0.506,0.188-0.738c-0.069-0.234-0.58-0.691-0.948-0.83c-0.372-0.135-1.957-0.557-2.651-0.76
		c-0.695-0.214-2.22-0.81-2.633-1.133c-0.417-0.322-2.239-2.514-2.656-3.023c-0.417-0.507-2.007-2.583-2.559-3.303
		c-0.556-0.715-1.781-2.423-2.452-3.273c-0.666-0.858-1.704-2.219-1.981-2.497c-0.278-0.274-0.323-0.417-0.576-0.596
		C210.248,47.294,210.134,47.181,210.134,47.181"/>
	<path clip-path="url(#SVGID_2_)" fill-rule="evenodd" clip-rule="evenodd" fill="#FFFFFF" d="M204.481,47.92
		c0,0,1.014,0.135,1.59,0.135c0.581,0,1.112-0.066,1.365-0.021c0.249,0.046,0.576,0.021,0.83,0.323
		c0.253,0.303,0.392,0.83,0.506,1.132c0.115,0.303,1.962,2.906,2.265,3.323c0.298,0.413,1.614,2.17,2.194,2.934
		c0.576,0.76,2.146,2.767,2.604,3.372c0.462,0.596,1.39,1.54,1.618,1.887c0.233,0.348,0.829,1.202,0.92,1.386
		c0.098,0.185-0.136,0.438-0.274,0.621c-0.139,0.188-0.412,0.512-0.694,0.785c-0.278,0.278-0.69,0.58-0.806,0.625
		c-0.114,0.045,0.045-0.323,0.07-0.531c0.02-0.209-0.111-0.47-0.462-0.735c-0.482-0.372-1.178-0.65-1.709-0.854
		c-0.531-0.208-1.646-0.544-2.398-0.857c-0.715-0.299-1.104-0.512-1.386-0.83c-0.372-0.417-1.132-1.822-1.569-2.607
		c-0.441-0.785-1.732-3.212-2.056-3.854c-0.322-0.649-0.486-1.042-0.531-1.435c-0.049-0.392-0.069-1.819-0.208-2.191
		c-0.14-0.367-0.557-1.017-0.807-1.222c-0.256-0.208-0.346-0.233-0.46-0.302c-0.119-0.065-0.511-0.184-0.511-0.184
		s-0.046-0.506-0.046-0.621C204.526,48.081,204.481,47.92,204.481,47.92"/>
	<path clip-path="url(#SVGID_2_)" fill-rule="evenodd" clip-rule="evenodd" fill="#FFFFFF" d="M204.135,55.513
		c0,0,0.646,1.088,0.874,1.455c0.233,0.367,0.834,1.156,1.133,1.753c0.302,0.602,1.226,2.125,1.479,2.633
		c0.25,0.507,0.577,0.968,0.531,1.5c-0.049,0.53-0.486,1.155-0.62,1.405c-0.144,0.258-0.164,0.535-0.491,0.784
		c-0.322,0.258-0.829,0.348-0.829,0.348s0.322-0.322,0.347-0.621c0.021-0.299-0.229-0.739-0.392-0.948
		c-0.16-0.204-0.531-0.576-0.944-0.785c-0.417-0.204-1.251-0.645-1.341-0.898c-0.094-0.254-0.118-0.531,0.09-1.038
		c0.278-0.675,0.233-1.341,0.119-1.867c-0.119-0.535-0.209-0.695-0.303-0.883c-0.089-0.181-0.298-0.299-0.298-0.299
		s0.322-1.177,0.392-1.476L204.135,55.513z"/>
	<path clip-path="url(#SVGID_2_)" fill-rule="evenodd" clip-rule="evenodd" fill="#FFFFFF" d="M179.577,80.071
		c0,0,1.545-0.572,2.261-0.899c0.718-0.323,2.101-0.919,2.999-1.34c0.948-0.438,3.417-1.799,4.479-2.469
		c1.059-0.671,2.423-1.614,3.53-2.538c1.112-0.924,2.886-2.562,3.601-3.257c0.716-0.687,2.402-2.677,2.91-3.412
		c0.507-0.74,1.385-2.125,1.385-2.125l1.938,0.973c0.834,0.412,1.732,0.805,2.333,0.898c0.597,0.09,0.989,0.159,1.59,0.114
		c0.602-0.049,0.834-0.163,1.157-0.531c0.322-0.367,0.69-1.018,0.829-1.364c0.139-0.344,0.348-0.806,0.348-0.806
		s0.739,0.344,1.201,0.511l2.235,0.784c0.6,0.205,1.475,0.368,1.823,0.621c0.347,0.254,0.441,0.438,0.417,0.691
		c-0.025,0.257-0.278,0.878-0.507,1.336c-0.233,0.466-1.107,2.31-1.455,2.935s-1.753,2.905-2.47,3.924
		c-0.714,1.014-3.003,3.878-3.856,4.687c-0.852,0.81-1.894,1.868-2.514,2.191c-0.625,0.322-1.614,0.511-2.284,0.923l-3.512,2.191
		c-0.918,0.58-2.238,1.363-3.183,1.85c-0.948,0.482-3.302,1.66-4.017,2.008c-0.717,0.348-1.688,0.76-2.146,0.973
		c-0.462,0.203-0.834,0.393-1.202,0.367c-0.367-0.023-0.621-0.277-0.784-0.58c-0.159-0.299-1.292-2.239-1.71-3
		c-0.411-0.764-1.997-3.465-2.304-3.947c-0.326-0.507-0.462-0.761-1.181-1.038c-0.47-0.18-0.625-0.253-0.852-0.253
		c-0.231,0-0.379,0.032-0.718-0.069C179.688,80.348,179.577,80.071,179.577,80.071"/>
	<path clip-path="url(#SVGID_2_)" fill-rule="evenodd" clip-rule="evenodd" fill="#FFFFFF" d="M174.289,81.571
		c0,0,1.268-0.323,1.893-0.527c0.621-0.208,1.315-0.462,1.754-0.556c0.437-0.095,0.625-0.114,0.854,0.118
		c0.232,0.229,0.441,0.666,0.556,0.988c0.114,0.323,1.41,2.563,1.843,3.327c0.441,0.756,1.668,2.885,2.035,3.551
		c0.372,0.67,1.684,2.795,1.963,3.258c0.276,0.457,0.6,1.082,0.828,1.455c0.229,0.367,0.602,1.221,0.765,1.568
		c0.159,0.344,0.303,0.621,0.184,0.92c-0.114,0.303-0.878,1.664-1.038,2.012c-0.163,0.346-0.878,1.613-0.878,1.613
		s-0.069-1.043-0.254-1.549c-0.188-0.506-0.393-0.83-0.76-1.082c-0.372-0.254-1.087-0.418-1.365-0.623
		c-0.273-0.207-0.531-0.391-0.874-1.086c-0.348-0.691-1.279-3.195-1.595-3.992c-0.347-0.875-1.499-3.785-1.892-4.754
		c-0.393-0.973-1.038-2.631-1.341-3.023c-0.298-0.393-1.083-0.969-1.336-0.993c-0.254-0.021-0.601-0.095-0.69-0.069
		c-0.099,0.02-0.393,0.049-0.393,0.049L174.289,81.571z"/>
	<path clip-path="url(#SVGID_2_)" fill-rule="evenodd" clip-rule="evenodd" fill="#FFFFFF" d="M215.631,65.693
		c0,0,0.571,0.046,0.85-0.094c0.278-0.139,0.952-0.646,1.39-1.062c0.438-0.413,0.943-0.97,1.107-1.247
		c0.159-0.278,0.229-0.343,0.229-0.343s0.233,0.064,0.233,0.229c0,0.163-0.462,1.684-0.605,2.076
		c-0.135,0.396-0.616,1.688-0.943,2.378c-0.322,0.695-1.361,2.702-1.733,3.368c-0.367,0.67-2.051,3.326-2.746,4.27
		c-0.69,0.948-2.791,3.531-3.437,4.25c-0.646,0.716-3.212,3.208-3.833,3.81c-0.626,0.596-5.146,3.576-6.021,4.107
		c-0.883,0.531-3.764,2.215-4.438,2.586c-0.667,0.369-2.697,1.338-3.389,1.684c-0.694,0.348-2.496,1.196-2.934,1.293
		c-0.438,0.094-0.944,0-1.336-0.045c-0.393-0.052-0.581-0.052-0.716-0.052c-0.143,0-0.649,0.071-0.649,0.071l-0.205-0.344
		c0,0,1.685-0.67,2.538-1.082c0.854-0.418,4.524-2.129,5.562-2.727c1.038-0.6,3.208-1.822,4.315-2.562s3.764-2.676,4.732-3.531
		c0.969-0.854,3.739-3.555,4.222-4.155c0.486-0.602,2.702-2.652,3.208-3.184c0.511-0.531,1.426-1.369,2.035-2.264
		c0.678-1.001,2.137-3.376,2.447-4.083c0.295-0.695,0.642-1.25,0.572-1.545c-0.065-0.303-0.09-0.58-0.18-0.625
		c-0.098-0.045-0.604-0.188-0.604-0.188l0.212-0.621C215.581,65.853,215.631,65.693,215.631,65.693"/>
	<path clip-path="url(#SVGID_2_)" fill-rule="evenodd" clip-rule="evenodd" fill="#FFFFFF" d="M169.279,82.519
		c0,0,0.535,0.023,1.018-0.14c0.486-0.163,1.594-0.621,2.056-0.67c0.462-0.046,1.152-0.046,1.267,0.139
		c0.114,0.188,0.278,0.646,0.486,1.222c0.208,0.58,1.57,4.043,1.893,4.965c0.322,0.924,1.847,4.594,2.125,5.354
		c0.273,0.766,0.988,2.449,1.083,2.797c0.095,0.346,0.412,1.266,0.347,1.545c-0.069,0.273-0.621,1.131-0.948,1.613
		c-0.322,0.486-1.454,2.012-1.454,2.012s-0.065-0.605,0.049-0.785c0.114-0.188,0.229-0.576,0.163-0.785
		c-0.069-0.213-0.326-0.854-0.67-1.133c-0.348-0.277-0.997-0.506-1.345-0.828c-0.34-0.328-0.507-0.418-0.757-1.436
		c-0.257-1.014-0.902-3.734-1.106-4.543c-0.213-0.811-1.042-4.64-1.246-5.404c-0.209-0.76-0.393-1.773-0.695-2.166
		c-0.298-0.396-0.919-0.947-1.177-0.996c-0.254-0.045-0.552-0.021-0.646-0.021c-0.095,0-0.258,0.021-0.258,0.021L169.279,82.519z"/>
	<path clip-path="url(#SVGID_2_)" fill-rule="evenodd" clip-rule="evenodd" fill="#FFFFFF" d="M164.481,82.957
		c0,0,0.897-0.09,1.246-0.18c0.344-0.1,1.292-0.303,1.848-0.303c0.552,0,1.083,0.139,1.177,0.482c0.09,0.346,0.229,1.34,0.298,1.781
		c0.07,0.438,1.062,4.684,1.178,5.305c0.114,0.625,1.271,5.193,1.385,5.863c0.114,0.672,0.507,2.266,0.482,2.633
		c-0.021,0.367,0.024,0.689-0.045,0.809c-0.069,0.115-0.76,1.014-1.107,1.357c-0.348,0.348-1.569,1.896-1.569,1.896
		s-0.114-0.438,0.049-0.65c0.159-0.205,0.507-0.506,0.462-0.854c-0.049-0.344-0.372-0.99-0.67-1.268
		c-0.303-0.277-0.969-0.625-1.271-0.947c-0.298-0.32-0.461-0.576-0.531-1.338c-0.069-0.764-0.371-4.777-0.462-6.092
		c-0.094-1.316-0.371-4.986-0.461-5.539c-0.091-0.555-0.185-1.086-0.552-1.453c-0.372-0.373-0.74-0.557-0.973-0.627
		c-0.229-0.068-0.462-0.094-0.462-0.094L164.481,82.957z"/>
	<path clip-path="url(#SVGID_2_)" fill-rule="evenodd" clip-rule="evenodd" fill="#FFFFFF" d="M159.496,83.005
		c0,0,0.919,0.02,1.132-0.049c0.204-0.066,1.107-0.186,1.75-0.16c0.649,0.025,1.345,0.184,1.39,0.531s0.069,1.475,0.09,2.166
		c0.024,0.695,0.302,4.27,0.322,4.852c0.024,0.576,0.327,4.568,0.393,5.537c0.069,0.969,0.208,2.84,0.184,3.207
		c-0.021,0.373-0.021,0.834-0.021,0.834s-1.062,1.107-1.406,1.406c-0.347,0.303-1.594,1.361-1.594,1.361s0.184-0.527,0.368-0.76
		c0.184-0.23,0.348-0.602,0.209-0.83c-0.139-0.232-1.087-1.227-1.386-1.459c-0.298-0.225-0.69-0.736-0.74-1.223
		c-0.044-0.482,0.185-3.689,0.328-5.031c0.134-1.336,0.318-4.363,0.412-5.398c0.094-1.041,0.229-2.283,0.049-2.725
		c-0.187-0.438-0.531-0.969-0.809-1.107c-0.278-0.135-0.694-0.209-0.694-0.209L159.496,83.005z"/>
	<path clip-path="url(#SVGID_2_)" fill-rule="evenodd" clip-rule="evenodd" fill="#FFFFFF" d="M154.555,82.703
		c0,0,0.67,0,0.993-0.021c0.323-0.024,0.621-0.095,1.153-0.069c0.535,0.02,0.948,0,1.34,0.135c0.392,0.139,0.695,0.348,0.65,0.996
		c-0.049,0.643-0.213,2.932-0.278,3.576c-0.069,0.646-0.462,5.309-0.462,5.746s-0.143,2.473-0.188,3.139
		c-0.033,0.516-0.229,1.777-0.278,2.264c-0.045,0.482-0.298,1.291-0.298,1.387c0,0.09-0.069,0.248-0.069,0.248
		s-0.855,0.695-1.153,0.834c-0.303,0.139-0.303-0.16-0.486-0.344c-0.184-0.188-0.438-0.207-0.879-0.42
		c-0.438-0.205-1.107-0.855-1.406-1.312c-0.298-0.461-0.396-0.924-0.208-1.684c0.184-0.764,0.829-3.396,1.042-4.34
		c0.204-0.946,0.829-3.576,1.034-4.504c0.208-0.924,0.58-2.379,0.58-2.885c0-0.508-0.163-0.988-0.437-1.246
		c-0.278-0.254-0.327-0.299-0.511-0.369c-0.184-0.069-0.372-0.117-0.372-0.117L154.555,82.703z"/>
	<path clip-path="url(#SVGID_2_)" fill-rule="evenodd" clip-rule="evenodd" fill="#FFFFFF" d="M149.544,81.873
		c0,0,0.674,0.07,0.993,0.07c0.323,0,0.879-0.07,1.5,0.064c0.625,0.143,1.365,0.258,1.455,0.535
		c0.094,0.273,0.233,0.576,0.069,1.178c-0.159,0.596-1.246,5.1-1.426,5.863c-0.188,0.762-1.018,4.336-1.156,4.938
		c-0.14,0.602-0.602,2.656-0.74,3.113c-0.139,0.463-0.413,1.342-0.462,1.436c-0.045,0.09-0.715,0.438-0.879,0.506
		c-0.159,0.07-0.392,0.184-0.392,0.184s0.253-0.367,0.163-0.6c-0.089-0.232-0.347-0.482-0.694-0.482
		c-0.344,0-0.736,0.277-1.014,0.184s-0.715-0.277-1.038-1.041c-0.323-0.758-0.347-0.875-0.233-1.451
		c0.119-0.58,1.549-3.992,1.848-4.803c0.302-0.805,1.593-4.156,1.916-4.961c0.323-0.809,0.764-1.871,0.74-2.189
		c-0.025-0.328-0.278-0.859-0.438-1.018c-0.163-0.164-0.392-0.258-0.49-0.234c-0.09,0.025-0.204-0.068-0.204-0.068L149.544,81.873z"
		/>
	<path clip-path="url(#SVGID_2_)" fill-rule="evenodd" clip-rule="evenodd" fill="#FFFFFF" d="M144.628,80.533
		c0,0,0.486,0.159,0.973,0.159c0.486,0,0.993-0.021,1.545,0.144c0.555,0.159,1.295,0.596,1.41,0.898
		c0.114,0.303-0.164,0.875-0.487,1.594c-0.323,0.715-1.822,4.707-2.17,5.562c-0.347,0.851-1.872,4.685-2.076,5.219
		c-0.208,0.527-0.879,2.145-1.087,2.559c-0.204,0.416-0.368,0.828-0.368,0.828l-0.854,0.258c0,0,0.233-0.348,0.09-0.554
		c-0.135-0.209-0.572-0.647-0.83-0.669c-0.249-0.023-0.596,0.047-0.899,0.16c-0.368,0.139-0.809,0.139-0.968-0.16
		c-0.164-0.301-0.626-1.156-0.671-1.363c-0.045-0.205-0.208-0.508,0.025-0.945c0.229-0.438,1.729-3.207,2.052-3.719
		c0.322-0.506,2.076-3.461,2.468-4.176s1.365-2.354,1.549-2.723c0.184-0.371,0.298-0.67,0.163-0.947
		c-0.143-0.278-0.143-0.417-0.302-0.486c-0.164-0.07-0.438-0.115-0.438-0.115L144.628,80.533z"/>
	<path clip-path="url(#SVGID_2_)" fill-rule="evenodd" clip-rule="evenodd" d="M162.43,70.425h-0.388
		c-5.051,0-10.773-1.413-10.773-9.55c0-8.17,5.623-9.78,10.961-9.829c5.097,0.045,10.507,1.913,10.507,9.829
		C172.736,68.031,167.727,70.425,162.43,70.425"/>
	<path clip-path="url(#SVGID_2_)" fill-rule="evenodd" clip-rule="evenodd" fill="#FFFFFF" d="M161.404,82.069
		c-24.099,0-42.322-14.855-42.322-31.717c0-16.87,18.223-31.721,42.322-31.721s42.322,14.851,42.322,31.721
		C203.726,67.213,185.503,82.069,161.404,82.069"/>
	<path clip-path="url(#SVGID_2_)" fill-rule="evenodd" clip-rule="evenodd" d="M161.343,30.021c5.827,0.049,9.755,2.411,9.755,8.864
		c0,6.743-4.107,8.913-9.755,8.95c-5.395-0.033-9.763-1.961-9.763-8.95C151.58,32.686,156.01,30.065,161.343,30.021"/>
	<path clip-path="url(#SVGID_2_)" fill-rule="evenodd" clip-rule="evenodd" d="M177.828,48.738
		c5.804-3.294,6.997-6.625,6.556-10.531c-0.793-7.054-10.454-12.093-23.246-11.938c-15.403,0.176-24.724,7.896-24.724,9.91
		c0,2.016,3.053,2.53,3.053,3.617l0.004,21.218c0.032,1.319-2.87,2.783-2.87,4.245c0,1.518,9.923,8.832,26.331,8.738
		c14.423-0.082,22.706-6.126,22.784-13.364c0.045-3.915-2.235-9.187-7.888-11.806V48.738z"/>
	<path clip-path="url(#SVGID_2_)" fill-rule="evenodd" clip-rule="evenodd" d="M161.416,20.103
		c24.361,0,40.933,15.198,40.933,30.339c0,15.146-16.571,30.344-40.933,30.344c-24.36,0-40.924-15.198-40.924-30.344
		C120.492,35.301,137.056,20.103,161.416,20.103"/>
	<path clip-path="url(#SVGID_2_)" fill-rule="evenodd" clip-rule="evenodd" fill="#FFFFFF" d="M161.343,30.021
		c5.827,0.049,9.751,2.411,9.751,8.864c0,6.743-4.104,8.913-9.751,8.95c-5.394-0.033-9.763-1.962-9.763-8.95
		C151.58,32.685,156.01,30.066,161.343,30.021 M177.828,48.738c5.804-3.29,6.998-6.624,6.556-10.531
		c-0.793-7.054-10.458-12.089-23.249-11.942c-15.399,0.184-24.721,7.9-24.721,9.914c0,2.016,3.053,2.534,3.053,3.617l0.004,21.223
		c0.033,1.314-2.869,2.781-2.869,4.24c0,1.521,9.923,8.832,26.331,8.738c14.422-0.078,22.705-6.126,22.783-13.364
		c0.041-3.91-2.235-9.187-7.888-11.806V48.738z M162.43,70.425h-0.388c-5.051,0-10.773-1.413-10.773-9.55
		c0-8.17,5.623-9.78,10.961-9.829c5.097,0.045,10.507,1.913,10.507,9.829C172.736,68.031,167.727,70.425,162.43,70.425"/>
</g>
</svg>
