<?xml version="1.0" encoding="utf-8"?>
<!-- Generator: Adobe Illustrator 15.1.0, SVG Export Plug-In . SVG Version: 6.00 Build 0)  -->
<!DOCTYPE svg PUBLIC "-//W3C//DTD SVG 1.1//EN" "http://www.w3.org/Graphics/SVG/1.1/DTD/svg11.dtd">
<svg version="1.1" id="Layer_1" xmlns="http://www.w3.org/2000/svg" xmlns:xlink="http://www.w3.org/1999/xlink" x="0px" y="0px"
	 width="190.148px" height="85.447px" viewBox="0 0 190.148 85.447" enable-background="new 0 0 190.148 85.447"
	 xml:space="preserve">
<g>
	<defs>
		<rect id="SVGID_1_" y="0" width="190.148" height="85.447"/>
	</defs>
	<clipPath id="SVGID_2_">
		<use xlink:href="#SVGID_1_"  overflow="visible"/>
	</clipPath>
	<path clip-path="url(#SVGID_2_)" fill="#FFFFFF" d="M35.848,4.241c0.16,0.005,0.344,0.009,0.56,0.013
		c0.877,0.016,1.866-0.345,2.524-0.654c0.469-0.219,0.774-0.41,0.733-0.41c-0.608-0.006-1.584-0.016-1.948-0.016
		c-1.582,0-2.414,0.897-2.421,0.981C35.29,4.205,35.508,4.227,35.848,4.241 M183.032,46.541c-0.899-2.002-3.378-1.352-3.378-1.352
		c-1.172,0.246-2.51,1.588-4.496,2.176c-4.267,1.264-7.674-0.204-7.674-0.204c-6.567-2.841-27.683-14.929-38.422-20.209
		c0,0-12.477-5.778-30.581-12.946c0,0-35.568-15.179-59.314-13.933c0,0-12.656,0.334-16.639,5.918c0,0-0.678,0.769-0.292,1.601
		c0,0,0.074,0.238-0.084,0.397c0,0-2.131,1.91-3.216,3.607c-0.382,0.619-0.746,1.607-0.023,2.381c0,0,0.353,0.273,0.5,0.512
		c0.309,0.506,0.597,1.259,0.98,1.707c0.553,0.66,1.672,1.8,3.249,1.529c0.703-0.123,0.707-0.32,0.707-0.32
		c0.789,0.783,2.07,0.759,2.07,0.759c-0.162-0.502-0.711-1.486-0.789-2.082c-0.084-0.654,0.107-1.281,0.107-1.281
		c0.223-0.742,0.665-1.678,1.152-2.15c0.426-0.424,1.52-0.908,2.399-0.301c0.704,0.498,1.542,2.121,0.844,4.436
		c-0.031,0.175-0.801,1.818-1.625,2.068c0,0-0.078,0.025-0.234,0.025c-0.557,0-1.59-0.582-1.59-0.582s-0.025,0.147,0.121,0.746
		c0.092,0.344,0.213,0.719,0.312,1.01c0,0-0.201,0.359-0.331,0.568c-0.173,0.225-0.367,1.041,0.06,1.352
		c0,0,1.828,1.244,3.604,1.352c1.222,0.074,1.685-0.75,1.685-0.75c0.9-1.241,1.58-2.297,2.527-3.163
		c2.594-2.375,6.237-3.013,6.237-3.013c0.242-0.031,4.22-1.139,10.984,4.269c-1.932,0.157-4.232,0.618-5.987,0.928
		c-5.01,0.895-8.225,5.621-9.161,7.543c-2.434,5.02,2.544,6.748,2.544,6.748c0.046-0.045,4.745-0.416,7.014-5.41
		c0,0,0.83-2.213,3.036-1.496c1.442,0.467,14.186,4.922,17.056,5.676c0,0,8.533,2.222,11.747-1.702
		c5.136,1.686,9.958,2.502,22.586,0.872c2.193-0.286,3.917-0.219,3.917-0.219c2.951,0.22,5.644,2.205,6.46,3.508
		c3.319,5.314,7.533,15.875,22.16,14.588l6.614-0.599c4.037-0.24,7.322-0.398,10.658,1.355c1.453,0.764,2.258,1.043,4.72,3.393
		c3.37,3.207,6.471,6.674,10.595,4.781c1.462-0.674,3.107-3.287,3.107-3.287c-0.159-1.193-0.689-2.342-2.002-3.32
		c3.746,0.891,12.198,1.468,15.469-4.25C183.26,48.443,183.353,47.258,183.032,46.541 M181.698,49.24
		c-0.32,1.107-1.901,2.59-3.825,3.441c-2.021,0.904-6.235,1.141-8.67,0.742c-0.007,0-4.72-0.479-8.85-4.793
		c-1.304-1.361-2.904-2.906-4.385-4.432c-0.651-0.682-2.253-2.284-4.915-2.639c-2.773-0.375-9.546-0.559-12.094-1.404
		c-1.703-0.567-3.755-1.721-6.488-5.766c-1.314-1.938-2.248-2.469-4.037-3.604c0,0,1.372,1.09,2.148,2.465
		c1.123,2,1.688,3.455,2.298,4.52c0.61,1.068,1.302,2.015,2.344,2.853c1.294,1.041,2.103,1.237,3.506,1.469
		c1.343,0.225,5.876,0.184,9.766,0.125c3.827-0.06,5.535,1.176,6.791,2.235c1.165,0.978,3.159,3.782,4.386,5.011
		c1.462,1.455,2.532,2.941,5.422,4.4c1.004,0.508,2.647,1.758,2.562,2.964c-1.299,1.3-2.912,1.642-6.782,0.606
		c0.272,0.27,2.3,2.396,5.766,1.392c-1.046,0.872-2.069,1.245-3.141,1.187c-3.627-0.201-7.18-4.67-9.17-6.318
		c-1.516-1.254-1.689-1.568-4.261-3.348c-3.905-2.705-12.668-1.941-12.668-1.941l-6.43,0.334
		c-12.523,0.947-17.781-10.146-19.168-12.46c-0.483-0.803-0.917-1.452-1.332-1.979c-0.641-0.851-4.062-5.289-7.521-6.748
		c0,0,3.398,2.926,3.198,4.863c0,0-1.408-0.656-5.241-0.107c-16.498,2.35-22.112-1.779-22.112-1.779
		c0.766-3.305-1.543-6.698-1.543-6.698c1.273,0.405,9.384,3.143,17.087,1.579c0,0-12.534,0.068-21.324-6.944
		c0,0,5.47,6.854,4.171,11.342c0,0-0.898,4.781-10.432,2.853c-1.017-0.201-2.215-0.542-16.487-4.501
		c-3.355-1.004-4.513,0.599-5.118,1.56c-0.026,1.41-1.688,3.057-2.526,3.574c-4.416-0.797-2.657-4.894-2.657-4.894
		c-2.78,3.974,0.132,5.732,1.054,5.857c-0.551,0.268-1.073,0.459-1.516,0.623c0,0-3.609-2.148-1.592-5.672
		c2.813-4.908,5.676-6.484,10.93-6.963c2.297-0.22,4.213-0.382,5.67-0.183c3.812,0.525,6.198,2.678,11.906,3.232
		C54.309,21.729,54.282,14.713,54.239,14.58c-0.002-0.002-0.004-0.013-0.004-0.013c-0.671,2.314-0.303,4.263,0.289,5.91
		c-0.167-0.059-2.816-1.799-3.825-2.412c-4.349-2.656-7.783-3.119-7.783-3.119c-1.441-0.184-2.113-1.936-2.113-1.936
		c-0.05-0.09-0.102-0.172-0.151-0.256c-2.007-3.426-3.989-3.494-3.989-3.494c1.115,1.518,1.138,3.682,1.138,3.682
		c0.594,4.258-4.222,5.57-4.222,5.57c-2.954,3.746-2.799,3.824-3.456,3.922c-0.66,0.092-2.1-0.643-2.1-0.643
		c-0.235-0.349,0.098-0.699,0.098-0.699c0.553-0.439,1.005-0.875,1.005-0.875c3.122-3.193,3.496-4.752,3.111-6.82
		c-0.789-4.152-3.756-3.668-3.756-3.668c-1.399,0.08-2.026,1.328-2.026,1.328c-0.494,0.766-1.546,3.105-1.546,3.105
		c-0.644,1.397-1.301,1.711-1.642,1.774c-0.149,0.027-0.423,0.021-0.514,0.019c-1.003-0.037-1.765-0.962-1.765-0.962
		c-0.047-0.047-0.092-0.098-0.125-0.137c-0.919-0.986-0.253-2.272-0.253-2.272c1.235-2.882,3.637-3.3,3.964-3.343
		c0.335-0.043,1.44-0.204,1.44-0.204c3.053-0.513,4.493-3.691,4.493-3.691c-2.057-0.023-3.062,0.111-3.062,0.111
		c-2.025,0.356-2.712,2.739-2.712,2.735c-1.715,0.392-1.67-1.08-1.369-1.53c0.268-0.416,1.275-2.183,7.856-3.705
		c0,0,3.245-0.976,10.182-0.664l-0.286,0.532c-0.614,1.16-3.046,3.552-7.067,2.666c0,0,0.036,1.787,4.398,2.425
		c0,0,3.942,0.705,10.631,6.08c0,0-3.199-6.353-8.628-7.998c0,0-0.677-0.144-0.346-0.57c0,0,3.351-3.113,7.666-3.236
		c0,0,14.619-1.408,22.734,9.76c0,0-2.445-4.741-4.298-6.811c0,0,8.487,2.396,21.539,6.936c0,0,8.907,3.158,14.606,5.406
		c7.692,3.031,26.93,10.515,39.203,17.205c2.189,1.191,24.385,12.767,24.385,12.767c6.146,2.759,10.399,1.082,10.399,1.082
		c1.383-0.526,3.893-2.454,4.99-1.364C181.895,47.736,181.97,48.496,181.698,49.24 M25.393,8.141c0,0,0.131-0.383,0.166-0.477
		c0.037-0.091,0.402-1.089,1.307-1.183c0,0,0.525-0.031,1.334-0.031c0,0-0.396,1.269-1.953,1.545
		C26.247,7.995,25.639,8.131,25.393,8.141"/>
	<path clip-path="url(#SVGID_2_)" fill="#FFFFFF" d="M34.393,79.778h13.31l-6.665-7.737L34.393,79.778z M49.382,81.73H32.716
		l-2.763,3.219h-3.26L39.8,69.84h5.543l13.119,15.109h-6.307L49.382,81.73z M132.786,79.778h13.31l-6.665-7.737L132.786,79.778z
		 M147.777,81.73H131.11l-2.764,3.219h-3.26l13.107-15.109h5.544l13.118,15.109h-6.308L147.777,81.73z M24.125,69.84v7.367
		c0,2.383-0.547,3.828-1.679,4.988c-1.978,2.023-5.77,2.754-11.134,2.754H0V82.92h10.414c3.195,0,5.355-0.529,6.656-1.814
		c0.986-0.975,1.43-2.332,1.43-4.35V69.84H24.125z M82.949,82.93v-4.92h5.597v6.938H72.268c-3.051,0-5.457-0.355-7.271-1.087
		c-3.026-1.218-4.409-3.45-4.409-6.495c0-2.879,1.506-4.873,3.424-5.947c2.037-1.141,4.334-1.58,8.157-1.58h15.806v2.02H73.92
		c-3.01,0-4.652,0.453-5.902,1.471c-1.11,0.902-1.703,2.254-1.703,4.064c-0.001,1.871,0.622,3.254,1.811,4.158
		c1.252,0.953,2.942,1.377,5.841,1.377L82.949,82.93z M181.294,79.611c2.114-0.068,3.907-0.391,5.288-1.133
		c1.433-0.773,2.115-2.229,2.115-3.738c0-2.02-0.903-3.312-2.546-4.035c-1.461-0.643-3.266-0.863-6.86-0.863h-17.44v15.107h5.624
		v-5.236h7.391l8.43,5.236h6.854L181.294,79.611z M178.559,71.744c2.108,0,3.043,0.195,3.684,0.676
		c0.609,0.457,0.828,1.154,0.828,2.238v0.283c0,0.979-0.233,1.773-0.951,2.271c-0.706,0.488-1.694,0.598-3.492,0.598h-11.152v-6.066
		H178.559z M122.606,69.84v7.527c0,1.949-0.213,3.49-1.195,4.777c-1.599,2.098-4.529,3.303-12.704,3.303h-0.085
		c-8.13,0-11.078-1.205-12.673-3.301c-0.983-1.289-1.195-2.827-1.195-4.777V69.84h5.625v7.314c0,1.963,0.248,3.115,0.968,4.129
		c1.216,1.715,3.317,2.334,7.095,2.334h0.478c3.951,0,5.879-0.621,7.096-2.336c0.719-1.014,0.967-2.217,0.967-4.121v-7.32H122.606z"
		/>
</g>
</svg>
