<?xml version="1.0" encoding="utf-8"?>
<!-- Generator: Adobe Illustrator 15.1.0, SVG Export Plug-In . SVG Version: 6.00 Build 0)  -->
<!DOCTYPE svg PUBLIC "-//W3C//DTD SVG 1.1//EN" "http://www.w3.org/Graphics/SVG/1.1/DTD/svg11.dtd">
<svg version="1.1" id="Layer_1" xmlns="http://www.w3.org/2000/svg" xmlns:xlink="http://www.w3.org/1999/xlink" x="0px" y="0px"
	 width="189.921px" height="31.243px" viewBox="0 0 189.921 31.243" enable-background="new 0 0 189.921 31.243"
	 xml:space="preserve">
<g>
	<defs>
		<rect id="SVGID_1_" width="189.921" height="31.243"/>
	</defs>
	<clipPath id="SVGID_2_">
		<use xlink:href="#SVGID_1_"  overflow="visible"/>
	</clipPath>
	<path clip-path="url(#SVGID_2_)" fill="#FFFFFF" d="M22.477,29.653c-2.515-1.575-4.367-7.011-4.367-13.468
		c0-0.237,0.001-0.472,0.007-0.705l0.003,0.004c-6.994-1.1-12.048-4.111-12.178-7.672l-0.02,0.041
		C4.21,9.98,3.233,12.439,3.233,15.059c0,7.709,8.464,14.027,19.199,14.585L22.477,29.653z M0,15.621C0,6.995,10.736,0,23.98,0
		s23.98,6.995,23.98,15.621c0,8.627-10.736,15.622-23.98,15.622S0,24.248,0,15.621 M23.98,2.254c2.557,0,4.731,3.879,5.537,9.29
		l0.003-0.008c4.974-0.775,8.457-2.56,8.457-4.639c0-2.789-6.268-5.048-13.997-5.048c-7.73,0-13.997,2.259-13.997,5.048
		c0,2.079,3.482,3.864,8.457,4.639l0.003,0.008C19.249,6.133,21.424,2.254,23.98,2.254 M25.528,29.645
		c10.735-0.559,19.199-6.876,19.199-14.585c0-2.62-0.978-5.079-2.689-7.206l-0.021-0.041c-0.129,3.561-5.182,6.572-12.177,7.672
		l0.003-0.004c0.005,0.233,0.008,0.468,0.008,0.705c0,6.458-1.854,11.893-4.368,13.468L25.528,29.645z M23.98,11.946
		c1.146,0,2.259-0.049,3.324-0.142l-0.001,0.001c-0.531-3.469-1.818-5.917-3.323-5.917s-2.792,2.448-3.323,5.917l-0.002-0.001
		C21.721,11.897,22.834,11.946,23.98,11.946 M23.98,24.792c1.925,0,3.495-4.006,3.579-9.03l0.01,0.004
		c-1.16,0.108-2.36,0.164-3.589,0.164s-2.429-0.056-3.589-0.164l0.011-0.004C20.485,20.786,22.055,24.792,23.98,24.792"/>
	<path clip-path="url(#SVGID_2_)" fill="#FFFFFF" d="M122.362,15.621c0-6.593,5.345-11.939,11.939-11.939
		c6.596,0,11.94,5.346,11.94,11.939c0,6.595-5.345,11.94-11.94,11.94C127.707,27.561,122.362,22.216,122.362,15.621 M134.302,23.183
		c3.683,0,6.668-3.386,6.668-7.562c0-4.175-2.985-7.561-6.668-7.561c-3.682,0-6.665,3.386-6.665,7.561
		C127.637,19.797,130.62,23.183,134.302,23.183"/>
	<polygon clip-path="url(#SVGID_2_)" fill="#FFFFFF" points="159.79,8.656 159.79,27.019 154.76,27.019 154.76,8.656 154.775,8.656 
		147.74,8.656 147.74,4.505 166.808,4.505 166.808,8.656 159.808,8.656 	"/>
	<path clip-path="url(#SVGID_2_)" fill="#FFFFFF" d="M172.894,21.953l-0.005,0.005l-1.931,5.061h-5.875l9.288-22.513h3.132h3.13
		l9.289,22.513h-5.877l-1.93-5.061l-0.005-0.005h-4.607H172.894z M177.503,18.153h3.165l-0.002,0.001l-3.142-8.24h-0.043
		l-3.144,8.24l-0.002-0.001H177.503z"/>
	<polygon clip-path="url(#SVGID_2_)" fill="#FFFFFF" points="67.057,8.656 67.057,27.019 62.026,27.019 62.026,8.656 62.043,8.656 
		55.008,8.656 55.008,4.505 74.075,4.505 74.075,8.656 67.075,8.656 	"/>
	<path clip-path="url(#SVGID_2_)" fill="#FFFFFF" d="M75.362,15.621c0-6.593,5.346-11.939,11.941-11.939
		c6.594,0,11.94,5.346,11.94,11.939c0,6.595-5.347,11.94-11.94,11.94C80.708,27.561,75.362,22.216,75.362,15.621 M87.303,23.183
		c3.681,0,6.667-3.386,6.667-7.562c0-4.175-2.986-7.561-6.667-7.561c-3.682,0-6.667,3.386-6.667,7.561
		C80.636,19.797,83.621,23.183,87.303,23.183"/>
	<polygon clip-path="url(#SVGID_2_)" fill="#FFFFFF" points="110.802,27.019 113.354,27.019 113.354,18.576 113.354,18.47 
		122.129,4.504 116.255,4.504 110.802,13.969 105.351,4.504 99.475,4.504 108.251,18.47 108.251,18.576 108.251,27.019 	"/>
</g>
</svg>
